date,usd_exchange_rate
2017-01-01,0.7186
2017-01-02,0.7186
2017-01-03,0.7226
2017-01-04,0.7284
2017-01-05,0.7337
2017-01-06,0.7298
2017-01-07,0.7353
2017-01-08,0.7353
2017-01-09,0.7353
2017-01-10,0.7368
2017-01-11,0.7441
2017-01-12,0.7483
2017-01-13,0.7502
2017-01-14,0.7478
2017-01-15,0.7478
2017-01-16,0.7478
2017-01-17,0.7567
2017-01-18,0.7506
2017-01-19,0.7561
2017-01-20,0.7556
2017-01-21,0.7583
2017-01-22,0.7583
2017-01-23,0.7583
2017-01-24,0.7582
2017-01-25,0.7572
2017-01-26,0.7536
2017-01-27,0.7551
2017-01-28,0.7556
2017-01-29,0.7556
2017-01-30,0.7556
2017-01-31,0.7585
2017-02-01,0.7586
2017-02-02,0.7658
2017-02-03,0.7683
2017-02-04,0.766
2017-02-05,0.766
2017-02-06,0.766
2017-02-07,0.7625
2017-02-08,0.7646
2017-02-09,0.7624
2017-02-10,0.7676
2017-02-11,0.764
2017-02-12,0.764
2017-02-13,0.764
2017-02-14,0.7664
2017-02-15,0.771
2017-02-16,0.7694
2017-02-17,0.7671
2017-02-18,0.7689
2017-02-19,0.7689
2017-02-20,0.7689
2017-02-21,0.7675
2017-02-22,0.7703
2017-02-23,0.7715
2017-02-24,0.7674
2017-02-25,0.7673
2017-02-26,0.7673
2017-02-27,0.7673
2017-02-28,0.7658
2017-03-01,0.7676
2017-03-02,0.7572
2017-03-03,0.7595
2017-03-04,0.7579
2017-03-05,0.7579
2017-03-06,0.7579
2017-03-07,0.7588
2017-03-08,0.7527
2017-03-09,0.7506
2017-03-10,0.7542
2017-03-11,0.7571
2017-03-12,0.7571
2017-03-13,0.7571
2017-03-14,0.756
2017-03-15,0.771
2017-03-16,0.7678
2017-03-17,0.7702
2017-03-18,0.773
2017-03-19,0.773
2017-03-20,0.773
2017-03-21,0.7691
2017-03-22,0.7678
2017-03-23,0.7627
2017-03-24,0.7623
2017-03-25,0.7618
2017-03-26,0.7618
2017-03-27,0.7618
2017-03-28,0.7634
2017-03-29,0.767
2017-03-30,0.7641
2017-03-31,0.7629
2017-04-01,0.7605
2017-04-02,0.7605
2017-04-03,0.7605
2017-04-04,0.7565
2017-04-05,0.757
2017-04-06,0.7546
2017-04-07,0.75
2017-04-08,0.7501
2017-04-09,0.7501
2017-04-10,0.7501
2017-04-11,0.7499
2017-04-12,0.7521
2017-04-13,0.7569
2017-04-14,0.7577
2017-04-15,0.759
2017-04-16,0.759
2017-04-17,0.759
2017-04-18,0.756
2017-04-19,0.7498
2017-04-20,0.7527
2017-04-21,0.7543
2017-04-22,0.7571
2017-04-23,0.7571
2017-04-24,0.7571
2017-04-25,0.7536
2017-04-26,0.7474
2017-04-27,0.7469
2017-04-28,0.7489
2017-04-29,0.7526
2017-04-30,0.7526
2017-05-01,0.7526
2017-05-02,0.7536
2017-05-03,0.7422
2017-05-04,0.7409
2017-05-05,0.7421
2017-05-06,0.7387
2017-05-07,0.7387
2017-05-08,0.7387
2017-05-09,0.7345
2017-05-10,0.7369
2017-05-11,0.7379
2017-05-12,0.7386
2017-05-13,0.7413
2017-05-14,0.7413
2017-05-15,0.7413
2017-05-16,0.7427
2017-05-17,0.7432
2017-05-18,0.7419
2017-05-19,0.7461
2017-05-20,0.7478
2017-05-21,0.7478
2017-05-22,0.7478
2017-05-23,0.7479
2017-05-24,0.7504
2017-05-25,0.7454
2017-05-26,0.7447
2017-05-27,0.744
2017-05-28,0.744
2017-05-29,0.744
2017-05-30,0.7466
2017-05-31,0.743
2017-06-01,0.7374
2017-06-02,0.7446
2017-06-03,0.7487
2017-06-04,0.7487
2017-06-05,0.7487
2017-06-06,0.7509
2017-06-07,0.7549
2017-06-08,0.7546
2017-06-09,0.753
2017-06-10,0.7541
2017-06-11,0.7541
2017-06-12,0.7541
2017-06-13,0.7538
2017-06-14,0.7588
2017-06-15,0.7579
2017-06-16,0.7621
2017-06-17,0.7599
2017-06-18,0.7599
2017-06-19,0.7599
2017-06-20,0.7581
2017-06-21,0.7553
2017-06-22,0.7542
2017-06-23,0.7569
2017-06-24,0.7585
2017-06-25,0.7585
2017-06-26,0.7585
2017-06-27,0.7583
2017-06-28,0.7641
2017-06-29,0.7684
2017-06-30,0.7691
2017-07-01,0.7661
2017-07-02,0.7661
2017-07-03,0.7661
2017-07-04,0.7604
2017-07-05,0.7603
2017-07-06,0.7586
2017-07-07,0.7606
2017-07-08,0.7607
2017-07-09,0.7607
2017-07-10,0.7607
2017-07-11,0.7638
2017-07-12,0.7678
2017-07-13,0.773
2017-07-14,0.7833
2017-07-15,0.7801
2017-07-16,0.7801
2017-07-17,0.7801
2017-07-18,0.7916
2017-07-19,0.7953
2017-07-20,0.7958
2017-07-21,0.7915
2017-07-22,0.7924
2017-07-23,0.7924
2017-07-24,0.7924
2017-07-25,0.7937
2017-07-26,0.8006
2017-07-27,0.7967
2017-07-28,0.7987
2017-07-29,0.8003
2017-07-30,0.8003
2017-07-31,0.8003
2017-08-01,0.7968
2017-08-02,0.7967
2017-08-03,0.7949
2017-08-04,0.7926
2017-08-05,0.7913
2017-08-06,0.7913
2017-08-07,0.7913
2017-08-08,0.7913
2017-08-09,0.7889
2017-08-10,0.7875
2017-08-11,0.7894
2017-08-12,0.7851
2017-08-13,0.7851
2017-08-14,0.7851
2017-08-15,0.7822
2017-08-16,0.7924
2017-08-17,0.7886
2017-08-18,0.7931
2017-08-19,0.7939
2017-08-20,0.7939
2017-08-21,0.7939
2017-08-22,0.7911
2017-08-23,0.7904
2017-08-24,0.7902
2017-08-25,0.7934
2017-08-26,0.7963
2017-08-27,0.7963
2017-08-28,0.7963
2017-08-29,0.7947
2017-08-30,0.7905
2017-08-31,0.7947
2017-09-01,0.7968
2017-09-02,0.7944
2017-09-03,0.7944
2017-09-04,0.7944
2017-09-05,0.7996
2017-09-06,0.8
2017-09-07,0.8047
2017-09-08,0.8059
2017-09-09,0.8029
2017-09-10,0.8029
2017-09-11,0.8029
2017-09-12,0.8019
2017-09-13,0.7985
2017-09-14,0.8006
2017-09-15,0.8002
2017-09-16,0.7961
2017-09-17,0.7961
2017-09-18,0.7961
2017-09-19,0.801
2017-09-20,0.8032
2017-09-21,0.7933
2017-09-22,0.7963
2017-09-23,0.7936
2017-09-24,0.7936
2017-09-25,0.7936
2017-09-26,0.7887
2017-09-27,0.7849
2017-09-28,0.7857
2017-09-29,0.7834
2017-09-30,0.7827
2017-10-01,0.7827
2017-10-02,0.7827
2017-10-03,0.7835
2017-10-04,0.7864
2017-10-05,0.7795
2017-10-06,0.7771
2017-10-07,0.7753
2017-10-08,0.7753
2017-10-09,0.7753
2017-10-10,0.7778
2017-10-11,0.7788
2017-10-12,0.7822
2017-10-13,0.7889
2017-10-14,0.7851
2017-10-15,0.7851
2017-10-16,0.7851
2017-10-17,0.7845
2017-10-18,0.7846
2017-10-19,0.788
2017-10-20,0.7819
2017-10-21,0.7806
2017-10-22,0.7806
2017-10-23,0.7806
2017-10-24,0.7776
2017-10-25,0.7704
2017-10-26,0.7661
2017-10-27,0.7679
2017-10-28,0.7688
2017-10-29,0.7688
2017-10-30,0.7688
2017-10-31,0.7657
2017-11-01,0.7676
2017-11-02,0.7713
2017-11-03,0.7651
2017-11-04,0.7692
2017-11-05,0.7692
2017-11-06,0.7692
2017-11-07,0.7645
2017-11-08,0.7678
2017-11-09,0.7679
2017-11-10,0.7662
2017-11-11,0.7622
2017-11-12,0.7622
2017-11-13,0.7622
2017-11-14,0.7631
2017-11-15,0.7588
2017-11-16,0.7588
2017-11-17,0.7566
2017-11-18,0.755
2017-11-19,0.755
2017-11-20,0.755
2017-11-21,0.7579
2017-11-22,0.7619
2017-11-23,0.7624
2017-11-24,0.7614
2017-11-25,0.7602
2017-11-26,0.7602
2017-11-27,0.7602
2017-11-28,0.7595
2017-11-29,0.7571
2017-11-30,0.7567
2017-12-01,0.761
2017-12-02,0.7599
2017-12-03,0.7599
2017-12-04,0.7599
2017-12-05,0.7607
2017-12-06,0.7563
2017-12-07,0.7512
2017-12-08,0.7506
2017-12-09,0.7527
2017-12-10,0.7527
2017-12-11,0.7527
2017-12-12,0.7559
2017-12-13,0.7637
2017-12-14,0.7666
2017-12-15,0.7645
2017-12-16,0.7663
2017-12-17,0.7663
2017-12-18,0.7663
2017-12-19,0.7666
2017-12-20,0.7667
2017-12-21,0.7702
2017-12-22,0.7716
2017-12-23,0.7717
2017-12-24,0.7717
2017-12-25,0.7717
2017-12-26,0.7728
2017-12-27,0.7768
2017-12-28,0.7798
2017-12-29,0.7802
2017-12-30,0.7805
2017-12-31,0.7805
2018-01-01,0.7805
2018-01-02,0.783
2018-01-03,0.7836
2018-01-04,0.7864
2018-01-05,0.7864
2018-01-06,0.7841
2018-01-07,0.7841
2018-01-08,0.7841
2018-01-09,0.7823
2018-01-10,0.7843
2018-01-11,0.7891
2018-01-12,0.7913
2018-01-13,0.7965
2018-01-14,0.7965
2018-01-15,0.7965
2018-01-16,0.7961
2018-01-17,0.797
2018-01-18,0.8
2018-01-19,0.7993
2018-01-20,0.8017
2018-01-21,0.8017
2018-01-22,0.8017
2018-01-23,0.7998
2018-01-24,0.8062
2018-01-25,0.8031
2018-01-26,0.8112
2018-01-27,0.8095
2018-01-28,0.8095
2018-01-29,0.8095
2018-01-30,0.8083
2018-01-31,0.8055
2018-02-01,0.8039
2018-02-02,0.7923
2018-02-03,0.7878
2018-02-04,0.7878
2018-02-05,0.7878
2018-02-06,0.7906
2018-02-07,0.7823
2018-02-08,0.778
2018-02-09,0.7814
2018-02-10,0.7861
2018-02-11,0.7861
2018-02-12,0.7861
2018-02-13,0.786
2018-02-14,0.7925
2018-02-15,0.7945
2018-02-16,0.7913
2018-02-17,0.7913
2018-02-18,0.7913
2018-02-19,0.7913
2018-02-20,0.7883
2018-02-21,0.7804
2018-02-22,0.7845
2018-02-23,0.7844
2018-02-24,0.7855
2018-02-25,0.7855
2018-02-26,0.7855
2018-02-27,0.779
2018-02-28,0.7762
2018-03-01,0.7756
2018-03-02,0.7764
2018-03-03,0.7765
2018-03-04,0.7765
2018-03-05,0.7765
2018-03-06,0.7828
2018-03-07,0.7825
2018-03-08,0.7792
2018-03-09,0.7851
2018-03-10,0.7873
2018-03-11,0.7873
2018-03-12,0.7873
2018-03-13,0.786
2018-03-14,0.7877
2018-03-15,0.7799
2018-03-16,0.7716
2018-03-17,0.7718
2018-03-18,0.7718
2018-03-19,0.7718
2018-03-20,0.7683
2018-03-21,0.7765
2018-03-22,0.7693
2018-03-23,0.7698
2018-03-24,0.7749
2018-03-25,0.7749
2018-03-26,0.7749
2018-03-27,0.7679
2018-03-28,0.7661
2018-03-29,0.7678
2018-03-30,0.7679
2018-03-31,0.7664
2018-04-01,0.7664
2018-04-02,0.7664
2018-04-03,0.7684
2018-04-04,0.7717
2018-04-05,0.7685
2018-04-06,0.7678
2018-04-07,0.7698
2018-04-08,0.7698
2018-04-09,0.7698
2018-04-10,0.7761
2018-04-11,0.7755
2018-04-12,0.7754
2018-04-13,0.7768
2018-04-14,0.778
2018-04-15,0.778
2018-04-16,0.778
2018-04-17,0.7766
2018-04-18,0.7784
2018-04-19,0.7731
2018-04-20,0.7673
2018-04-21,0.7604
2018-04-22,0.7604
2018-04-23,0.7604
2018-04-24,0.7604
2018-04-25,0.7564
2018-04-26,0.7556
2018-04-27,0.7582
2018-04-28,0.7533
2018-04-29,0.7533
2018-04-30,0.7533
2018-05-01,0.749
2018-05-02,0.7497
2018-05-03,0.7531
2018-05-04,0.7542
2018-05-05,0.7517
2018-05-06,0.7517
2018-05-07,0.7517
2018-05-08,0.7451
2018-05-09,0.7464
2018-05-10,0.7533
2018-05-11,0.7543
2018-05-12,0.7526
2018-05-13,0.7526
2018-05-14,0.7526
2018-05-15,0.7472
2018-05-16,0.7517
2018-05-17,0.7511
2018-05-18,0.7513
2018-05-19,0.7582
2018-05-20,0.7582
2018-05-21,0.7582
2018-05-22,0.7576
2018-05-23,0.7561
2018-05-24,0.7576
2018-05-25,0.7549
2018-05-26,0.7547
2018-05-27,0.7547
2018-05-28,0.7547
2018-05-29,0.7505
2018-05-30,0.7578
2018-05-31,0.7569
2018-06-01,0.7568
2018-06-02,0.7645
2018-06-03,0.7645
2018-06-04,0.7645
2018-06-05,0.7618
2018-06-06,0.7667
2018-06-07,0.7626
2018-06-08,0.76
2018-06-09,0.7611
2018-06-10,0.7611
2018-06-11,0.7611
2018-06-12,0.7573
2018-06-13,0.7579
2018-06-14,0.748
2018-06-15,0.7444
2018-06-16,0.7423
2018-06-17,0.7423
2018-06-18,0.7423
2018-06-19,0.7383
2018-06-20,0.7368
2018-06-21,0.7381
2018-06-22,0.7441
2018-06-23,0.7414
2018-06-24,0.7414
2018-06-25,0.7414
2018-06-26,0.7394
2018-06-27,0.7341
2018-06-28,0.7355
2018-06-29,0.7405
2018-06-30,0.7341
2018-07-01,0.7341
2018-07-02,0.7341
2018-07-03,0.7386
2018-07-04,0.7382
2018-07-05,0.7387
2018-07-06,0.7433
2018-07-07,0.7467
2018-07-08,0.7467
2018-07-09,0.7467
2018-07-10,0.7459
2018-07-11,0.7366
2018-07-12,0.7409
2018-07-13,0.7424
2018-07-14,0.742
2018-07-15,0.742
2018-07-16,0.742
2018-07-17,0.7388
2018-07-18,0.7398
2018-07-19,0.7359
2018-07-20,0.7423
2018-07-21,0.7381
2018-07-22,0.7381
2018-07-23,0.7381
2018-07-24,0.7421
2018-07-25,0.7455
2018-07-26,0.7378
2018-07-27,0.7401
2018-07-28,0.7407
2018-07-29,0.7407
2018-07-30,0.7407
2018-07-31,0.7429
2018-08-01,0.7404
2018-08-02,0.736
2018-08-03,0.74
2018-08-04,0.7387
2018-08-05,0.7387
2018-08-06,0.7387
2018-08-07,0.7421
2018-08-08,0.7432
2018-08-09,0.7372
2018-08-10,0.7302
2018-08-11,0.7269
2018-08-12,0.7269
2018-08-13,0.7269
2018-08-14,0.7245
2018-08-15,0.7239
2018-08-16,0.7261
2018-08-17,0.7312
2018-08-18,0.734
2018-08-19,0.734
2018-08-20,0.734
2018-08-21,0.7371
2018-08-22,0.7347
2018-08-23,0.7246
2018-08-24,0.7325
2018-08-25,0.7352
2018-08-26,0.7352
2018-08-27,0.7352
2018-08-28,0.7338
2018-08-29,0.731
2018-08-30,0.7264
2018-08-31,0.7191
2018-09-01,0.7214
2018-09-02,0.7214
2018-09-03,0.7214
2018-09-04,0.7179
2018-09-05,0.719
2018-09-06,0.7204
2018-09-07,0.7107
2018-09-08,0.7115
2018-09-09,0.7115
2018-09-10,0.7115
2018-09-11,0.7125
2018-09-12,0.7169
2018-09-13,0.7193
2018-09-14,0.7153
2018-09-15,0.7183
2018-09-16,0.7183
2018-09-17,0.7183
2018-09-18,0.7219
2018-09-19,0.7264
2018-09-20,0.7291
2018-09-21,0.7291
2018-09-22,0.7253
2018-09-23,0.7253
2018-09-24,0.7253
2018-09-25,0.725
2018-09-26,0.7257
2018-09-27,0.7207
2018-09-28,0.723
2018-09-29,0.7226
2018-09-30,0.7226
2018-10-01,0.7226
2018-10-02,0.7188
2018-10-03,0.7104
2018-10-04,0.7073
2018-10-05,0.7052
2018-10-06,0.7078
2018-10-07,0.7078
2018-10-08,0.7078
2018-10-09,0.7103
2018-10-10,0.7063
2018-10-11,0.7124
2018-10-12,0.7119
2018-10-13,0.7131
2018-10-14,0.7131
2018-10-15,0.7131
2018-10-16,0.7141
2018-10-17,0.7109
2018-10-18,0.7099
2018-10-19,0.7121
2018-10-20,0.7081
2018-10-21,0.7081
2018-10-22,0.7081
2018-10-23,0.7086
2018-10-24,0.7059
2018-10-25,0.7081
2018-10-26,0.7096
2018-10-27,0.7056
2018-10-28,0.7056
2018-10-29,0.7056
2018-10-30,0.7106
2018-10-31,0.7074
2018-11-01,0.7206
2018-11-02,0.7199
2018-11-03,0.7211
2018-11-04,0.7211
2018-11-05,0.7211
2018-11-06,0.7247
2018-11-07,0.7277
2018-11-08,0.7257
2018-11-09,0.7225
2018-11-10,0.7173
2018-11-11,0.7173
2018-11-12,0.7173
2018-11-13,0.7218
2018-11-14,0.7237
2018-11-15,0.7277
2018-11-16,0.7337
2018-11-17,0.7295
2018-11-18,0.7295
2018-11-19,0.7295
2018-11-20,0.7214
2018-11-21,0.7262
2018-11-22,0.7255
2018-11-23,0.7237
2018-11-24,0.7221
2018-11-25,0.7221
2018-11-26,0.7221
2018-11-27,0.7224
2018-11-28,0.7306
2018-11-29,0.7319
2018-11-30,0.7318
2018-12-01,0.7358
2018-12-02,0.7358
2018-12-03,0.7358
2018-12-04,0.7339
2018-12-05,0.7269
2018-12-06,0.7236
2018-12-07,0.72
2018-12-08,0.719
2018-12-09,0.719
2018-12-10,0.719
2018-12-11,0.7207
2018-12-12,0.7221
2018-12-13,0.7227
2018-12-14,0.7177
2018-12-15,0.7175
2018-12-16,0.7175
2018-12-17,0.7175
2018-12-18,0.7183
2018-12-19,0.7108
2018-12-20,0.7109
2018-12-21,0.7034
2018-12-22,0.7062
2018-12-23,0.7062
2018-12-24,0.7062
2018-12-25,0.7037
2018-12-26,0.7067
2018-12-27,0.7036
2018-12-28,0.7044
2018-12-29,0.7052
2018-12-30,0.7052
2018-12-31,0.7052
2019-01-01,0.7053
2019-01-02,0.6985
2019-01-03,0.7006
2019-01-04,0.7113
2019-01-05,0.7148
2019-01-06,0.7148
2019-01-07,0.7148
2019-01-08,0.7141
2019-01-09,0.7171
2019-01-10,0.7186
2019-01-11,0.7216
2019-01-12,0.7196
2019-01-13,0.7196
2019-01-14,0.7196
2019-01-15,0.7201
2019-01-16,0.7168
2019-01-17,0.7194
2019-01-18,0.7168
2019-01-19,0.7158
2019-01-20,0.7158
2019-01-21,0.7158
2019-01-22,0.7123
2019-01-23,0.7142
2019-01-24,0.7095
2019-01-25,0.7183
2019-01-26,0.7166
2019-01-27,0.7166
2019-01-28,0.7166
2019-01-29,0.7156
2019-01-30,0.7247
2019-01-31,0.7273
2019-02-01,0.7251
2019-02-02,0.7226
2019-02-03,0.7226
2019-02-04,0.7226
2019-02-05,0.7235
2019-02-06,0.7104
2019-02-07,0.7101
2019-02-08,0.709
2019-02-09,0.7062
2019-02-10,0.7062
2019-02-11,0.7062
2019-02-12,0.7095
2019-02-13,0.7089
2019-02-14,0.7106
2019-02-15,0.714
2019-02-16,0.7131
2019-02-17,0.7131
2019-02-18,0.7131
2019-02-19,0.7166
2019-02-20,0.7164
2019-02-21,0.7095
2019-02-22,0.7127
2019-02-23,0.7167
2019-02-24,0.7167
2019-02-25,0.7167
2019-02-26,0.7188
2019-02-27,0.7139
2019-02-28,0.7095
2019-03-01,0.7083
2019-03-02,0.7093
2019-03-03,0.7093
2019-03-04,0.7093
2019-03-05,0.7084
2019-03-06,0.7033
2019-03-07,0.7016
2019-03-08,0.7047
2019-03-09,0.707
2019-03-10,0.707
2019-03-11,0.707
2019-03-12,0.7081
2019-03-13,0.7094
2019-03-14,0.7065
2019-03-15,0.7089
2019-03-16,0.7105
2019-03-17,0.7105
2019-03-18,0.7105
2019-03-19,0.7088
2019-03-20,0.7116
2019-03-21,0.7112
2019-03-22,0.7084
2019-03-23,0.7113
2019-03-24,0.7113
2019-03-25,0.7113
2019-03-26,0.7135
2019-03-27,0.7085
2019-03-28,0.7076
2019-03-29,0.7097
2019-03-30,0.7112
2019-03-31,0.7112
2019-04-01,0.7112
2019-04-02,0.7073
2019-04-03,0.7113
2019-04-04,0.7112
2019-04-05,0.7106
2019-04-06,0.7127
2019-04-07,0.7127
2019-04-08,0.7127
2019-04-09,0.7123
2019-04-10,0.7173
2019-04-11,0.7124
2019-04-12,0.7173
2019-04-13,0.7174
2019-04-14,0.7174
2019-04-15,0.7174
2019-04-16,0.7176
2019-04-17,0.7179
2019-04-18,0.7151
2019-04-19,0.7153
2019-04-20,0.7134
2019-04-21,0.7134
2019-04-22,0.7134
2019-04-23,0.7102
2019-04-24,0.7016
2019-04-25,0.7015
2019-04-26,0.704
2019-04-27,0.7057
2019-04-28,0.7057
2019-04-29,0.7057
2019-04-30,0.7049
2019-05-01,0.7016
2019-05-02,0.7
2019-05-03,0.7024
2019-05-04,0.699
2019-05-05,0.699
2019-05-06,0.699
2019-05-07,0.7014
2019-05-08,0.6989
2019-05-09,0.6989
2019-05-10,0.7001
2019-05-11,0.6944
2019-05-12,0.6944
2019-05-13,0.6944
2019-05-14,0.6944
2019-05-15,0.6928
2019-05-16,0.6893
2019-05-17,0.6869
2019-05-18,0.6908
2019-05-19,0.6908
2019-05-20,0.6908
2019-05-21,0.6884
2019-05-22,0.6882
2019-05-23,0.6901
2019-05-24,0.6924
2019-05-25,0.6919
2019-05-26,0.6919
2019-05-27,0.6919
2019-05-28,0.6925
2019-05-29,0.6917
2019-05-30,0.6912
2019-05-31,0.6939
2019-06-01,0.6977
2019-06-02,0.6977
2019-06-03,0.6977
2019-06-04,0.6991
2019-06-05,0.697
2019-06-06,0.6977
2019-06-07,0.6999
2019-06-08,0.6964
2019-06-09,0.6964
2019-06-10,0.6964
2019-06-11,0.6963
2019-06-12,0.6929
2019-06-13,0.6914
2019-06-14,0.6873
2019-06-15,0.6853
2019-06-16,0.6853
2019-06-17,0.6853
2019-06-18,0.6877
2019-06-19,0.6882
2019-06-20,0.6923
2019-06-21,0.6924
2019-06-22,0.6962
2019-06-23,0.6962
2019-06-24,0.6962
2019-06-25,0.6958
2019-06-26,0.6985
2019-06-27,0.7009
2019-06-28,0.702
2019-06-29,0.6966
2019-06-30,0.6966
2019-07-01,0.6966
2019-07-02,0.6995
2019-07-03,0.7029
2019-07-04,0.7022
2019-07-05,0.6979
2019-07-06,0.6972
2019-07-07,0.6972
2019-07-08,0.6972
2019-07-09,0.6928
2019-07-10,0.6959
2019-07-11,0.6974
2019-07-12,0.7018
2019-07-13,0.704
2019-07-14,0.704
2019-07-15,0.704
2019-07-16,0.7013
2019-07-17,0.7009
2019-07-18,0.7076
2019-07-19,0.7043
2019-07-20,0.7036
2019-07-21,0.7036
2019-07-22,0.7036
2019-07-23,0.7005
2019-07-24,0.6977
2019-07-25,0.6951
2019-07-26,0.691
2019-07-27,0.6902
2019-07-28,0.6902
2019-07-29,0.6902
2019-07-30,0.6872
2019-07-31,0.6845
2019-08-01,0.68
2019-08-02,0.68
2019-08-03,0.6757
2019-08-04,0.6757
2019-08-05,0.6757
2019-08-06,0.6761
2019-08-07,0.6756
2019-08-08,0.6801
2019-08-09,0.6788
2019-08-10,0.6753
2019-08-11,0.6753
2019-08-12,0.6753
2019-08-13,0.6801
2019-08-14,0.6748
2019-08-15,0.6776
2019-08-16,0.6781
2019-08-17,0.6764
2019-08-18,0.6764
2019-08-19,0.6764
2019-08-20,0.6778
2019-08-21,0.6781
2019-08-22,0.6757
2019-08-23,0.6756
2019-08-24,0.6775
2019-08-25,0.6775
2019-08-26,0.6775
2019-08-27,0.6752
2019-08-28,0.6734
2019-08-29,0.6726
2019-08-30,0.6737
2019-08-31,0.6715
2019-09-01,0.6715
2019-09-02,0.6715
2019-09-03,0.6758
2019-09-04,0.6797
2019-09-05,0.6815
2019-09-06,0.6847
2019-09-07,0.6862
2019-09-08,0.6862
2019-09-09,0.6862
2019-09-10,0.6861
2019-09-11,0.6862
2019-09-12,0.6867
2019-09-13,0.6878
2019-09-14,0.6865
2019-09-15,0.6865
2019-09-16,0.6865
2019-09-17,0.6866
2019-09-18,0.6828
2019-09-19,0.6792
2019-09-20,0.6769
2019-09-21,0.6774
2019-09-22,0.6774
2019-09-23,0.6774
2019-09-24,0.6802
2019-09-25,0.6751
2019-09-26,0.6749
2019-09-27,0.6765
2019-09-28,0.675
2019-09-29,0.675
2019-09-30,0.675
2019-10-01,0.6704
2019-10-02,0.6705
2019-10-03,0.6742
2019-10-04,0.6769
2019-10-05,0.6732
2019-10-06,0.6732
2019-10-07,0.6732
2019-10-08,0.6729
2019-10-09,0.6725
2019-10-10,0.6762
2019-10-11,0.6789
2019-10-12,0.6775
2019-10-13,0.6775
2019-10-14,0.6775
2019-10-15,0.6753
2019-10-16,0.6758
2019-10-17,0.6824
2019-10-18,0.6856
2019-10-19,0.6868
2019-10-20,0.6868
2019-10-21,0.6868
2019-10-22,0.6856
2019-10-23,0.6854
2019-10-24,0.6819
2019-10-25,0.6823
2019-10-26,0.6838
2019-10-27,0.6838
2019-10-28,0.6838
2019-10-29,0.6865
2019-10-30,0.6903
2019-10-31,0.6894
2019-11-01,0.6914
2019-11-02,0.6884
2019-11-03,0.6884
2019-11-04,0.6884
2019-11-05,0.6894
2019-11-06,0.6883
2019-11-07,0.6898
2019-11-08,0.6861
2019-11-09,0.685
2019-11-10,0.685
2019-11-11,0.685
2019-11-12,0.6842
2019-11-13,0.6838
2019-11-14,0.6787
2019-11-15,0.682
2019-11-16,0.6811
2019-11-17,0.6811
2019-11-18,0.6811
2019-11-19,0.6827
2019-11-20,0.6803
2019-11-21,0.6786
2019-11-22,0.6786
2019-11-23,0.678
2019-11-24,0.678
2019-11-25,0.678
2019-11-26,0.6788
2019-11-27,0.6777
2019-11-28,0.677
2019-11-29,0.6765
2019-11-30,0.6819
2019-12-01,0.6819
2019-12-02,0.6819
2019-12-03,0.6847
2019-12-04,0.685
2019-12-05,0.6834
2019-12-06,0.6839
2019-12-07,0.6823
2019-12-08,0.6823
2019-12-09,0.6823
2019-12-10,0.681
2019-12-11,0.6876
2019-12-12,0.6909
2019-12-13,0.6876
2019-12-14,0.6885
2019-12-15,0.6885
2019-12-16,0.6885
2019-12-17,0.6852
2019-12-18,0.6853
2019-12-19,0.6886
2019-12-20,0.6899
2019-12-21,0.6923
2019-12-22,0.6923
2019-12-23,0.6923
2019-12-24,0.6922
2019-12-25,0.692
2019-12-26,0.6946
2019-12-27,0.6978
2019-12-28,0.6995
2019-12-29,0.6995
2019-12-30,0.6995
2019-12-31,0.7022
