date,price_t_plus_1,wholesale_price_t_minus_4,wholesale_cluster_label
2017-01-01,209.58325652940624,22.332642548273288,1
2017-01-02,206.8610276968641,22.332642548273288,1
2017-01-03,220.1181823961219,22.332642548273288,0
2017-01-04,224.03364786375366,22.332642548273288,0
2017-01-05,218.8387692550975,22.332642548273288,0
2017-01-06,224.71562084717567,22.332642548273288,0
2017-01-07,222.5690565585096,22.332642548273288,0
2017-01-08,225.00760422241407,22.351022149423134,0
2017-01-09,225.39664505948616,22.381580576358626,0
2017-01-10,224.8129679801456,22.399871323273413,0
2017-01-11,223.44834025857594,22.54501910132509,0
2017-01-12,223.7410819197847,22.54501910132509,0
2017-01-13,222.76459056051962,22.54501910132509,0
2017-01-14,223.83862340355674,22.533002507476805,0
2017-01-15,221.59020062078386,22.520971676043406,0
2017-01-16,219.8232367366525,22.50289864507001,0
2017-01-17,219.8232367366525,22.44848542487987,0
2017-01-18,218.44441291709407,22.399871323273413,0
2017-01-19,215.5754782721384,22.399871323273413,1
2017-01-20,214.6815554966941,22.399871323273413,1
2017-01-21,213.38730863166742,22.375476290076175,1
2017-01-22,214.08465700320318,22.357141244630313,1
2017-01-23,213.28760208910475,22.357141244630313,1
2017-01-24,212.48917796047098,22.36325662956361,1
2017-01-25,211.68937476887345,22.375476290076175,1
2017-01-26,209.88472352095593,22.375476290076175,1
2017-01-27,208.97972469779302,22.375476290076175,1
2017-01-28,207.9720565573162,22.357141244630313,1
2017-01-29,207.16430656826418,22.338772806645476,1
2017-01-30,205.5444529650412,22.326508558023665,1
2017-01-31,206.25385697250732,22.32037083046464,1
2017-02-01,209.28159043792684,22.301935169423494,1
2017-02-02,206.8610276968641,22.301935169423494,1
2017-02-03,204.52906519717746,22.301935169423494,1
2017-02-04,206.05128448263855,22.314229360151735,1
2017-02-05,204.12226232098828,22.338772806645476,1
2017-02-06,212.78874808596964,22.34489933855973,1
2017-02-07,211.3890910007369,22.357141244630313,1
2017-02-08,213.7859212452536,22.375476290076175,1
2017-02-09,212.1894139055054,22.375476290076175,1
2017-02-10,206.25385697250732,22.375476290076175,1
2017-02-11,200.341500094214,22.381580576358626,1
2017-02-12,206.8610276968641,22.381580576358626,1
2017-02-13,201.8781538316005,22.375476290076175,1
2017-02-14,217.75350174190214,22.357141244630313,0
2017-02-15,223.83862340355674,22.351022149423134,0
2017-02-16,223.7410819197847,22.351022149423134,0
2017-02-17,219.42969305110395,22.351022149423134,0
2017-02-18,221.2961567855038,22.351022149423134,0
2017-02-19,222.5690565585096,22.357141244630313,0
2017-02-20,221.8840654640717,22.36936830959299,0
2017-02-21,224.91029576655797,22.38768117377361,0
2017-02-22,222.86232802118911,22.38768117377361,0
2017-02-23,221.39419131330033,22.38768117377361,0
2017-02-24,221.10002789743754,22.38768117377361,0
2017-02-25,220.6093558641813,22.36325662956361,0
2017-02-26,218.5430326160667,22.326508558023665,0
2017-02-27,218.5430326160667,22.301935169423494,0
2017-02-28,216.46770310907803,22.264962201009,0
2017-03-01,214.78096451761843,22.227852707575416,1
2017-03-02,213.48699379950972,22.227852707575416,1
2017-03-03,210.88818254053356,22.227852707575416,1
2017-03-04,212.68891289295334,22.215452328792352,1
2017-03-05,211.48920732637077,22.209246386336993,1
2017-03-06,211.68937476887345,22.196822966915324,1
2017-03-07,210.38672754456206,22.190605478555828,1
2017-03-08,210.38672754456206,22.17192983024242,1
2017-03-09,207.9720565573162,22.17192983024242,1
2017-03-10,205.03704744218254,22.17192983024242,1
2017-03-11,208.37539206330973,22.15321928632026,1
2017-03-12,206.05128448263855,22.12195707597485,1
2017-03-13,205.6458651024378,22.103152710563364,1
2017-03-14,205.6458651024378,22.103152710563364,1
2017-03-15,208.27459179035898,22.10942476600607,1
2017-03-16,207.16430656826418,22.10942476600607,1
2017-03-17,204.63070791512158,22.10942476600607,1
2017-03-18,206.55754468941592,22.115692885845057,1
2017-03-19,204.52906519717746,22.115692885845057,1
2017-03-20,203.5113595593502,22.090596769218664,1
2017-03-21,205.24007870533202,22.03389865091397,1
2017-03-22,202.6955112807435,22.00225971666548,1
2017-03-23,200.7518016381317,22.00225971666548,1
2017-03-24,201.16171888305198,22.00225971666548,1
2017-03-25,204.52906519717746,21.95779543909435,1
2017-03-26,201.16171888305198,21.92591292308129,1
2017-03-27,200.85431691883903,21.913131171048008,1
2017-03-28,200.85431691883903,21.90673410994483,1
2017-03-29,200.95680820432054,21.90673410994483,1
2017-03-30,200.64926233878742,21.90673410994483,1
2017-03-31,199.5197380798207,21.90673410994483,1
2017-04-01,199.8280804504077,21.913131171048008,1
2017-04-02,198.59339602494364,21.919524106643365,1
2017-04-03,202.49131385727935,21.92591292308129,1
2017-04-04,199.00534775383423,21.945054720722865,1
2017-04-05,210.98840787604652,21.964159673084303,1
2017-04-06,216.26957697193407,21.964159673084303,0
2017-04-07,220.1181823961219,21.964159673084303,0
2017-04-08,216.7647363811518,21.989575919907693,0
2017-04-09,218.04972955454866,22.040214391071398,0
2017-04-10,218.74021076748394,22.084312871457477,0
2017-04-11,217.06158296814223,22.14072612684532,0
2017-04-12,215.17838968319253,22.17192983024242,1
2017-04-13,219.03582514185933,22.17192983024242,0
2017-04-14,217.8522648855026,22.17192983024242,0
2017-04-15,216.26957697193407,22.209246386336993,0
2017-04-16,213.8855211046047,22.252607598744603,1
2017-04-17,213.7859212452536,22.289625942031268,1
2017-04-18,211.28895291261634,22.301935169423494,1
2017-04-19,209.68376762178286,22.301935169423494,1
2017-04-20,208.47616996840458,22.301935169423494,1
2017-04-21,206.8610276968641,22.301935169423494,1
2017-04-22,207.3663793555038,22.301935169423494,1
2017-04-23,209.58325652940624,22.338772806645476,1
2017-04-24,211.08861137003143,22.338772806645476,1
2017-04-25,209.48272331483713,22.32037083046464,1
2017-04-26,205.6458651024378,22.301935169423494,1
2017-04-27,206.55754468941592,22.301935169423494,1
2017-04-28,208.0729240581013,22.301935169423494,1
2017-04-29,207.56836183763642,22.295782438056264,1
2017-04-30,205.13857459726037,22.295782438056264,1
2017-05-01,206.9621433075457,22.246424595183925,1
2017-05-02,206.8610276968641,22.209246386336993,1
2017-05-03,209.08036882833616,22.17192983024242,1
2017-05-04,209.28159043792684,22.17192983024242,1
2017-05-05,214.78096451761843,22.17192983024242,1
2017-05-06,218.3457727791208,22.14072612684532,0
2017-05-07,217.16049042924513,22.115692885845057,0
2017-05-08,214.97971924676148,22.090596769218664,1
2017-05-09,216.7647363811518,22.065437398366573,0
2017-05-10,217.35824335768368,22.040214391071398,0
2017-05-11,214.78096451761843,22.040214391071398,1
2017-05-12,213.48699379950972,22.040214391071398,1
2017-05-13,212.68891289295334,22.00225971666548,1
2017-05-14,208.778369682936,21.976875921889327,1
2017-05-15,207.2653542605328,21.970519831939875,1
2017-05-16,204.42739930083704,21.970519831939875,1
2017-05-17,203.0016306180976,21.989575919907693,1
2017-05-18,202.79757461024164,21.989575919907693,1
2017-05-19,203.20559257508984,21.989575919907693,1
2017-05-20,202.49131385727935,22.02757890331381,1
2017-05-21,202.0826353154209,22.065437398366573,1
2017-05-22,202.0826353154209,22.12195707597485,1
2017-05-23,202.59342437065743,22.12821734227602,1
2017-05-24,201.36653386081693,22.134473690615238,1
2017-05-25,201.2641383229245,22.134473690615238,1
2017-05-26,213.8855211046047,22.134473690615238,1
2017-05-27,215.17838968319253,22.14072612684532,1
2017-05-28,214.88035242808903,22.15946002120185,1
2017-05-29,212.98835402195462,22.165696867247846,1
2017-05-30,220.6093558641813,22.17815891595616,0
2017-05-31,218.64163189366403,22.196822966915324,0
2017-06-01,219.8232367366525,22.196822966915324,0
2017-06-02,218.74021076748394,22.196822966915324,0
2017-06-03,220.6093558641813,22.196822966915324,0
2017-06-04,218.93730737404994,22.184384130146125,0
2017-06-05,220.1181823961219,22.17192983024242,0
2017-06-06,218.3457727791208,22.146974656805245,0
2017-06-07,215.9722314682983,22.134473690615238,0
2017-06-08,214.48267404871368,22.134473690615238,1
2017-06-09,213.9850996842811,22.134473690615238,1
2017-06-10,213.18787415272257,22.115692885845057,1
2017-06-11,210.7879353436533,22.090596769218664,1
2017-06-12,209.28159043792684,22.05913762746985,1
2017-06-13,209.78425661222462,22.03389865091397,1
2017-06-14,206.25385697250732,21.995919840358106,1
2017-06-15,206.25385697250732,21.995919840358106,1
2017-06-16,207.16430656826418,21.995919840358106,1
2017-06-17,202.28702192963942,21.9514271237267,1
2017-06-18,203.30753834086545,21.90673410994483,1
2017-06-19,200.95680820432054,21.87468669846067,1
2017-06-20,201.16171888305198,21.84253518775252,1
2017-06-21,201.0592755179478,21.80381482064908,1
2017-06-22,200.44411159034084,21.80381482064908,1
2017-06-23,198.69642067611238,21.80381482064908,1
2017-06-24,198.49034685405047,21.76494196021052,1
2017-06-25,197.6650678494928,21.725915163789765,1
2017-06-26,197.04507019357763,21.686732967037152,1
2017-06-27,196.00974696150564,21.653961356062357,1
2017-06-28,194.86798662832948,21.634245731674802,1
2017-06-29,196.00974696150564,21.634245731674802,1
2017-06-30,197.04507019357763,21.634245731674802,1
2017-07-01,192.57520251180938,21.62766503839431,1
2017-07-02,195.49114414530212,21.62766503839431,1
2017-07-03,196.83820546132557,21.62766503839431,1
2017-07-04,205.84862058328721,21.640822011005078,1
2017-07-05,210.88818254053356,21.660524435868446,1
2017-07-06,209.68376762178286,21.660524435868446,1
2017-07-07,210.58737528627546,21.660524435868446,1
2017-07-08,209.48272331483713,21.680187388498158,1
2017-07-09,210.28637074214305,21.686732967037152,1
2017-07-10,208.87905832282226,21.71939562922212,1
2017-07-11,209.9851683681699,21.73894128986856,1
2017-07-12,208.1737691288636,21.76494196021052,1
2017-07-13,208.97972469779302,21.76494196021052,1
2017-07-14,207.2653542605328,21.76494196021052,1
2017-07-15,206.75988940442306,21.78439754175867,1
2017-07-16,205.3415597881691,21.790874215006927,1
2017-07-17,203.0016306180976,21.78439754175867,1
2017-07-18,200.95680820432054,21.77143142105575,1
2017-07-19,199.108274568457,21.758448223414636,1
2017-07-20,199.5197380798207,21.758448223414636,1
2017-07-21,201.8781538316005,21.758448223414636,1
2017-07-22,203.71508717647058,21.74544789500591,1
2017-07-23,201.8781538316005,21.73894128986856,1
2017-07-24,201.0592755179478,21.74544789500591,1
2017-07-25,199.62254314090276,21.73894128986856,1
2017-07-26,199.62254314090276,21.73894128986856,1
2017-07-27,199.9308127465077,21.73894128986856,1
2017-07-28,199.2111769843207,21.73894128986856,1
2017-07-29,199.72532392314545,21.76494196021052,1
2017-07-30,199.00534775383423,21.758448223414636,1
2017-07-31,198.59339602494364,21.758448223414636,1
2017-08-01,198.7994208318339,21.76494196021052,1
2017-08-02,199.2111769843207,21.76494196021052,1
2017-08-03,200.7518016381317,21.76494196021052,1
2017-08-04,202.49131385727935,21.76494196021052,1
2017-08-05,203.81691594039958,21.78439754175867,1
2017-08-06,203.40946066147316,21.79734663908577,1
2017-08-07,209.48272331483713,21.82964525424949,1
2017-08-08,213.18787415272257,21.887518109851804,1
2017-08-09,215.27769333811872,21.913131171048008,1
2017-08-10,214.18419308026134,21.913131171048008,1
2017-08-11,213.28760208910475,21.913131171048008,1
2017-08-12,213.48699379950972,21.945054720722865,1
2017-08-13,212.68891289295334,21.95779543909435,1
2017-08-14,210.48706238593996,21.976875921889327,1
2017-08-15,209.38216795778484,21.995919840358106,1
2017-08-16,209.08036882833616,22.01492736145049,1
2017-08-17,209.28159043792684,22.01492736145049,1
2017-08-18,208.6776587576131,22.01492736145049,1
2017-08-19,205.84862058328721,22.040214391071398,1
2017-08-20,205.3415597881691,22.05913762746985,1
2017-08-21,204.63070791512158,22.0717331920035,1
2017-08-22,204.7323274766594,22.0717331920035,1
2017-08-23,204.93549721829157,22.065437398366573,1
2017-08-24,201.67357729453164,22.065437398366573,1
2017-08-25,201.16171888305198,22.065437398366573,1
2017-08-26,200.44411159034084,22.046526129851593,1
2017-08-27,201.16171888305198,22.05283387330557,1
2017-08-28,203.5113595593502,22.05283387330557,1
2017-08-29,201.46890551994053,22.05283387330557,1
2017-08-30,201.16171888305198,22.05283387330557,1
2017-08-31,205.6458651024378,22.05283387330557,1
2017-09-01,210.58737528627546,22.05283387330557,1
2017-09-02,213.58665761170064,22.065437398366573,1
2017-09-03,218.04972955454866,22.0717331920035,0
2017-09-04,220.70753031739147,22.078025014374077,0
2017-09-05,220.6093558641813,22.078025014374077,0
2017-09-06,221.39419131330033,22.103152710563364,0
2017-09-07,220.2164573070481,22.103152710563364,0
2017-09-08,217.8522648855026,22.103152710563364,0
2017-09-09,217.35824335768368,22.134473690615238,0
2017-09-10,215.9722314682983,22.146974656805245,0
2017-09-11,214.58212534663053,22.165696867247846,1
2017-09-12,212.38927818235325,22.190605478555828,1
2017-09-13,211.58930190919946,22.203036600941296,1
2017-09-14,208.97972469779302,22.203036600941296,1
2017-09-15,208.0729240581013,22.203036600941296,1
2017-09-16,206.45633822434024,22.203036600941296,1
2017-09-17,207.3663793555038,22.203036600941296,1
2017-09-18,205.9499639698858,22.196822966915324,1
2017-09-19,205.3415597881691,22.190605478555828,1
2017-09-20,202.59342437065743,22.190605478555828,1
2017-09-21,203.0016306180976,22.190605478555828,1
2017-09-22,201.8781538316005,22.190605478555828,1
2017-09-23,201.67357729453164,22.196822966915324,1
2017-09-24,201.9804064436743,22.209246386336993,1
2017-09-25,200.54669899735447,22.221654433984025,1
2017-09-26,207.46738187420695,22.221654433984025,1
2017-09-27,216.7647363811518,22.221654433984025,0
2017-09-28,220.1181823961219,22.221654433984025,0
2017-09-29,218.3457727791208,22.221654433984025,0
2017-09-30,220.4129467686626,22.209246386336993,0
2017-10-01,219.8232367366525,22.203036600941296,0
2017-10-02,221.59020062078386,22.203036600941296,0
2017-10-03,221.49220591944447,22.215452328792352,0
2017-10-04,221.8840654640717,22.234047155216697,0
2017-10-05,219.03582514185933,22.234047155216697,0
2017-10-06,216.7647363811518,22.234047155216697,0
2017-10-07,217.16049042924513,22.264962201009,0
2017-10-08,215.27769333811872,22.277301633964605,1
2017-10-09,213.08812480339233,22.264962201009,1
2017-10-10,211.3890910007369,22.234047155216697,1
2017-10-11,210.38672754456206,22.215452328792352,1
2017-10-12,208.1737691288636,22.215452328792352,1
2017-10-13,206.65872840901952,22.215452328792352,1
2017-10-14,205.6458651024378,22.209246386336993,1
2017-10-15,204.93549721829157,22.203036600941296,1
2017-10-16,205.7472543013228,22.209246386336993,1
2017-10-17,207.2653542605328,22.227852707575416,1
2017-10-18,213.48699379950972,22.227852707575416,1
2017-10-19,224.91029576655797,22.227852707575416,0
2017-10-20,220.6093558641813,22.227852707575416,0
2017-10-21,220.1181823961219,22.227852707575416,0
2017-10-22,223.9361453794676,22.234047155216697,0
2017-10-23,224.13113087262835,22.252607598744603,0
2017-10-24,224.61825435162314,22.264962201009,0
2017-10-25,223.44834025857594,22.271133810869337,0
2017-10-26,222.47125998409317,22.271133810869337,0
2017-10-27,220.8056847303103,22.271133810869337,0
2017-10-28,221.6881754341407,22.271133810869337,0
2017-10-29,220.6093558641813,22.271133810869337,0
2017-10-30,222.07987614331822,22.258786798824698,0
2017-10-31,221.59020062078386,22.252607598744603,0
2017-11-01,219.52810932504593,22.271133810869337,0
2017-11-02,218.04972955454866,22.271133810869337,0
2017-11-03,216.66574605739314,22.271133810869337,0
2017-11-04,215.5754782721384,22.308084141627898,1
2017-11-05,216.17048266203386,22.351022149423134,0
2017-11-06,215.07906499226326,22.399871323273413,1
2017-11-07,213.68630008727882,22.45454579329537,1
2017-11-08,213.28760208910475,22.496867138774064,1
2017-11-09,215.07906499226326,22.496867138774064,1
2017-11-10,219.62650535239976,22.496867138774064,0
2017-11-11,229.27027784980723,22.514950908624833,0
2017-11-12,223.54594036359066,22.533002507476805,0
2017-11-13,225.68822349705835,22.580983858328022,0
2017-11-14,224.61825435162314,22.616821913085566,0
2017-11-15,228.01466463476132,22.65253432677225,0
2017-11-16,227.14353171515853,22.65253432677225,0
2017-11-17,224.22859442228062,22.65253432677225,0
2017-11-18,226.4649222035394,22.688122146575573,0
2017-11-19,224.71562084717567,22.717684233186578,0
2017-11-20,225.59104990901068,22.723586405946893,0
2017-11-21,225.39664505948616,22.711778651857884,0
2017-11-22,223.54594036359066,22.705869657254343,0
2017-11-23,221.59020062078386,22.705869657254343,0
2017-11-24,219.52810932504593,22.705869657254343,0
2017-11-25,217.75350174190214,22.682199451601853,0
2017-11-26,218.04972955454866,22.670343745999585,0
2017-11-27,218.2471121844955,22.664410725823288,0
2017-11-28,219.72488115049921,22.676273319666073,0
2017-11-29,217.8522648855026,22.694041409345438,0
2017-11-30,216.17048266203386,22.694041409345438,0
2017-12-01,216.36865044820618,22.694041409345438,0
2017-12-02,214.58212534663053,22.705869657254343,1
2017-12-03,213.7859212452536,22.717684233186578,1
2017-12-04,214.28370793431642,22.723586405946893,1
2017-12-05,221.8840654640717,22.723586405946893,0
2017-12-06,230.90748694461206,22.723586405946893,2
2017-12-07,227.14353171515853,22.723586405946893,0
2017-12-08,224.03364786375366,22.723586405946893,0
2017-12-09,224.03364786375366,22.729485174835045,0
2017-12-10,229.55958632753703,22.729485174835045,0
2017-12-11,229.1738044427778,22.717684233186578,0
2017-12-12,228.20804219876925,22.699957244659217,0
2017-12-13,228.20804219876925,22.688122146575573,0
2017-12-14,227.82121174854558,22.688122146575573,0
2017-12-15,226.4649222035394,22.688122146575573,0
2017-12-16,224.42346320855646,22.670343745999585,0
2017-12-17,225.88251307880722,22.670343745999585,0
2017-12-18,226.94973836015575,22.699957244659217,0
2017-12-19,224.8129679801456,22.717684233186578,0
2017-12-20,222.76459056051962,22.723586405946893,0
2017-12-21,221.00193350334717,22.723586405946893,0
2017-12-22,220.31471209217747,22.723586405946893,0
2017-12-23,217.95100748378928,22.717684233186578,0
2017-12-24,219.03582514185933,22.699957244659217,0
2017-12-25,216.36865044820618,22.65847425434756,0
2017-12-26,218.44441291709407,22.634693759288698,0
2017-12-27,217.95100748378928,22.628739959101786,0
2017-12-28,217.45708886094684,22.628739959101786,0
2017-12-29,213.18787415272257,22.628739959101786,1
2017-12-30,212.8885617892202,22.628739959101786,1
2017-12-31,214.6815554966941,22.628739959101786,1
2018-01-01,216.56673497274974,22.616821913085566,0
2018-01-02,218.44441291709407,22.62278267865542,0
2018-01-03,221.198102319182,22.628739959101786,0
2018-01-04,229.7523656760811,22.628739959101786,0
2018-01-05,228.01466463476132,22.628739959101786,0
2018-01-06,224.42346320855646,22.628739959101786,0
2018-01-07,228.30470277307688,22.640644084069457,0
2018-01-08,229.27027784980723,22.646590938286657,0
2018-01-09,228.30470277307688,22.634693759288698,0
2018-01-10,228.40134456254685,22.610857657517446,0
2018-01-11,225.59104990901068,22.610857657517446,0
2018-01-12,224.22859442228062,22.610857657517446,0
2018-01-13,223.35072058051455,22.598918656833256,0
2018-01-14,224.42346320855646,22.592943901913536,0
2018-01-15,222.07987614331822,22.592943901913536,0
2018-01-16,221.49220591944447,22.610857657517446,0
2018-01-17,220.6093558641813,22.634693759288698,0
2018-01-18,221.39419131330033,22.634693759288698,0
2018-01-19,216.0713675002501,22.634693759288698,0
2018-01-20,217.35824335768368,22.65253432677225,0
2018-01-21,217.65471803517428,22.664410725823288,0
2018-01-22,219.23279969398914,22.676273319666073,0
2018-01-23,216.66574605739314,22.670343745999585,0
2018-01-24,216.46770310907803,22.65847425434756,0
2018-01-25,214.6815554966941,22.65847425434756,1
2018-01-26,214.48267404871368,22.65847425434756,1
2018-01-27,217.35824335768368,22.646590938286657,0
2018-01-28,215.07906499226326,22.640644084069457,1
2018-01-29,213.38730863166742,22.640644084069457,1
2018-01-30,213.28760208910475,22.640644084069457,1
2018-01-31,215.77389672061264,22.640644084069457,0
2018-02-01,211.78942592501224,22.640644084069457,1
2018-02-02,212.48917796047098,22.640644084069457,1
2018-02-03,209.9851683681699,22.664410725823288,1
2018-02-04,213.68630008727882,22.676273319666073,1
2018-02-05,212.8885617892202,22.682199451601853,1
2018-02-06,213.38730863166742,22.682199451601853,1
2018-02-07,217.8522648855026,22.694041409345438,0
2018-02-08,216.96265481845194,22.694041409345438,0
2018-02-09,215.07906499226326,22.694041409345438,1
2018-02-10,212.38927818235325,22.753046305232996,1
2018-02-11,220.4129467686626,22.758928124846694,0
2018-02-12,223.7410819197847,22.770681640973734,0
2018-02-13,228.78772417558537,22.776553346727614,0
2018-02-14,227.14353171515853,22.758928124846694,0
2018-02-15,228.69115737375242,22.758928124846694,0
2018-02-16,225.68822349705835,22.758928124846694,0
2018-02-17,227.04664452982342,22.723586405946893,0
2018-02-18,227.14353171515853,22.688122146575573,0
2018-02-19,225.78537788172616,22.640644084069457,0
2018-02-20,227.14353171515853,22.586965637388143,0
2018-02-21,226.7558690057992,22.54501910132509,0
2018-02-22,224.61825435162314,22.54501910132509,0
2018-02-23,224.03364786375366,22.54501910132509,0
2018-02-24,223.9361453794676,22.508926566658417,0
2018-02-25,221.59020062078386,22.484793351660183,0
2018-02-26,219.92157212814092,22.496867138774064,0
2018-02-27,217.35824335768368,22.508926566658417,0
2018-02-28,216.56673497274974,22.526988873976908,0
2018-03-01,213.8855211046047,22.526988873976908,1
2018-03-02,212.98835402195462,22.526988873976908,1
2018-03-03,211.58930190919946,22.55102207172004,1
2018-03-04,212.48917796047098,22.57499855979314,1
2018-03-05,211.48920732637077,22.598918656833256,1
2018-03-06,210.98840787604652,22.640644084069457,1
2018-03-07,213.48699379950972,22.65253432677225,1
2018-03-08,214.08465700320318,22.65253432677225,1
2018-03-09,225.97962910407227,22.65253432677225,0
2018-03-10,225.00760422241407,22.664410725823288,0
2018-03-11,225.59104990901068,22.664410725823288,0
2018-03-12,226.27086230633722,22.65847425434756,0
2018-03-13,227.6276834177959,22.65253432677225,0
2018-03-14,226.27086230633722,22.634693759288698,0
2018-03-15,225.97962910407227,22.634693759288698,0
2018-03-16,223.2530813130497,22.634693759288698,0
2018-03-17,223.44834025857594,22.610857657517446,0
2018-03-18,221.00193350334717,22.598918656833256,0
2018-03-19,219.92157212814092,22.580983858328022,0
2018-03-20,217.2593772197666,22.569009736832477,0
2018-03-21,217.75350174190214,22.557021497774578,0
2018-03-22,216.0713675002501,22.557021497774578,0
2018-03-23,213.18787415272257,22.557021497774578,1
2018-03-24,213.38730863166742,22.563017384483985,1
2018-03-25,216.86370596214212,22.586965637388143,0
2018-03-26,214.58212534663053,22.62278267865542,1
2018-03-27,215.17838968319253,22.65847425434756,1
2018-03-28,215.77389672061264,22.729485174835045,0
2018-03-29,214.6815554966941,22.729485174835045,1
2018-03-30,212.28935683716563,22.729485174835045,1
2018-03-31,211.58930190919946,22.794148309984287,1
2018-04-01,212.8885617892202,22.84675288208602,1
2018-04-02,220.01988734222078,22.887482155168733,0
2018-04-03,223.9361453794676,22.910683846462486,0
2018-04-04,227.14353171515853,22.910683846462486,0
2018-04-05,230.81132829065,22.910683846462486,2
2018-04-06,227.91794761456663,22.910683846462486,0
2018-04-07,228.40134456254685,22.910683846462486,0
2018-04-08,230.71515123995562,22.94538870544541,2
2018-04-09,231.6760956470513,22.94538870544541,2
2018-04-10,230.71515123995562,22.933833396285117,2
2018-04-11,229.8487275041163,22.91647611123952,0
2018-04-12,229.65598528885255,22.91647611123952,0
2018-04-13,225.29941376630777,22.91647611123952,0
2018-04-14,225.20216320634586,22.899089536033895,0
2018-04-15,225.10489336369173,22.881673552310893,0
2018-04-16,223.35072058051455,22.875861668611247,0
2018-04-17,224.71562084717567,22.881673552310893,0
2018-04-18,223.0577439443652,22.904888322855147,0
2018-04-19,222.5690565585096,22.904888322855147,0
2018-04-20,222.66683341180178,22.904888322855147,0
2018-04-21,221.39419131330033,22.92226512156052,0
2018-04-22,221.10002789743754,22.94538870544541,0
2018-04-23,227.6276834177959,22.95116150877654,0
2018-04-24,226.17380370212356,22.956931083703356,0
2018-04-25,236.3585873858963,22.956931083703356,2
2018-04-26,231.6760956470513,22.956931083703356,2
2018-04-27,233.3055168357908,22.956931083703356,2
2018-04-28,234.0704967497748,22.96269743453576,2
2018-04-29,234.9297293808279,22.968460565574567,2
2018-04-30,233.4012022558538,22.968460565574567,2
2018-05-01,234.0704967497748,23.054524052946395,2
2018-05-02,232.73102534674385,23.105820797473196,2
2018-05-03,231.58008364144425,23.105820797473196,2
2018-05-04,228.69115737375242,23.105820797473196,0
2018-05-05,230.42650956071972,23.145543662007373,0
2018-05-06,229.46316877721887,23.168174442820344,0
2018-05-07,228.30470277307688,23.179471392402142,0
2018-05-08,228.20804219876925,23.185115270931245,0
2018-05-09,227.33724919472007,23.185115270931245,0
2018-05-10,225.78537788172616,23.185115270931245,0
2018-05-11,225.59104990901068,23.185115270931245,0
2018-05-12,226.27086230633722,23.173824451023147,0
2018-05-13,225.00760422241407,23.168174442820344,0
2018-05-14,224.61825435162314,23.168174442820344,0
2018-05-15,225.68822349705835,23.19075609057617,0
2018-05-16,232.73102534674385,23.21891444377291,2
2018-05-17,233.2098133932076,23.21891444377291,2
2018-05-18,235.21581962865721,23.21891444377291,2
2018-05-19,238.06799962707535,23.286185819110425,2
2018-05-20,237.97318038038753,23.319659691773122,2
2018-05-21,237.59372973516335,23.375212591112135,2
2018-05-22,237.7834898159607,23.397351537934917,2
2018-05-23,239.58275834864637,23.43598264639475,2
2018-05-24,238.54183603330256,23.43598264639475,2
2018-05-25,238.63655144123507,23.43598264639475,2
2018-05-26,239.67728460848033,23.463489567489617,2
2018-05-27,239.015240599025,23.523752816791,2
2018-05-28,238.92059415452107,23.561923474787644,2
2018-05-29,237.68861847174,23.583673446049563,2
2018-05-30,236.54880192486615,23.589103946904864,2
2018-05-31,236.1683025269433,23.589103946904864,2
2018-06-01,235.12047397474592,23.589103946904864,2
2018-06-02,234.0704967497748,23.56736516966273,2
2018-06-03,233.68815052207293,23.523752816791,2
2018-06-04,231.09974912089862,23.49640318549286,2
2018-06-05,229.46316877721887,23.463489567489617,0
2018-06-06,228.30470277307688,23.419443860654336,0
2018-06-07,227.43407951983605,23.419443860654336,0
2018-06-08,226.27086230633722,23.419443860654336,0
2018-06-09,224.8129679801456,23.38628790722735,0
2018-06-10,226.0767259732694,23.375212591112135,0
2018-06-11,225.88251307880722,23.353026784426522,0
2018-06-12,227.72445702139646,23.32522826716029,0
2018-06-13,233.2098133932076,23.291772247842225,2
2018-06-14,237.30895903835412,23.291772247842225,2
2018-06-15,234.7389136468201,23.291772247842225,2
2018-06-16,234.83433041324182,23.275003991224203,2
2018-06-17,236.73894625194333,23.23577300112854,2
2018-06-18,236.83399211972065,23.21891444377291,2
2018-06-19,239.20448187640432,23.207660235741905,2
2018-06-20,238.73124958869133,23.21328885934575,2
2018-06-21,236.92902047492674,23.21328885934575,2
2018-06-22,236.07313369361424,23.21328885934575,2
2018-06-23,234.9297293808279,23.224536992940806,2
2018-06-24,233.59251908489898,23.207660235741905,2
2018-06-25,232.4435353403548,23.19075609057617,2
2018-06-26,230.81132829065,23.179471392402142,2
2018-06-27,229.46316877721887,23.156865210006995,0
2018-06-28,227.33724919472007,23.156865210006995,0
2018-06-29,225.39664505948616,23.156865210006995,0
2018-06-30,226.852813190655,23.13420976673512,0
2018-07-01,224.5208684774408,23.128538178808586,0
2018-07-02,223.54594036359066,23.128538178808586,0
2018-07-03,223.9361453794676,23.128538178808586,0
2018-07-04,224.22859442228062,23.151205977407756,0
2018-07-05,223.64352091189073,23.151205977407756,0
2018-07-06,224.22859442228062,23.151205977407756,0
2018-07-07,223.15542243980136,23.173824451023147,0
2018-07-08,224.326038528876,23.21891444377291,0
2018-07-09,224.61825435162314,23.241386467943368,0
2018-07-10,225.78537788172616,23.263810177248416,0
2018-07-11,238.25758611547155,23.269408584415835,2
2018-07-12,235.8827431513739,23.269408584415835,2
2018-07-13,234.6434790677256,23.269408584415835,2
2018-07-14,234.0704967497748,23.269408584415835,2
2018-07-15,239.29907673530553,23.263810177248416,2
2018-07-16,235.97794723962247,23.263810177248416,2
2018-07-17,234.6434790677256,23.269408584415835,2
2018-07-18,232.63521347131845,23.263810177248416,2
2018-07-19,229.8487275041163,23.263810177248416,0
2018-07-20,228.59457184772398,23.263810177248416,0
2018-07-21,226.94973836015575,23.246996915088978,0
2018-07-22,225.88251307880722,23.23577300112854,0
2018-07-23,225.29941376630777,23.202028569035996,0
2018-07-24,223.64352091189073,23.168174442820344,0
2018-07-25,223.7410819197847,23.12286349197147,0
2018-07-26,224.03364786375366,23.12286349197147,0
2018-07-27,223.15542243980136,23.12286349197147,0
2018-07-28,221.2961567855038,23.117185702175618,0
2018-07-29,222.07987614331822,23.117185702175618,0
2018-07-30,220.8056847303103,23.139878259790887,0
2018-07-31,220.6093558641813,23.179471392402142,0
2018-08-01,223.2530813130497,23.224536992940806,0
2018-08-02,226.4649222035394,23.224536992940806,0
2018-08-03,231.48405335569305,23.224536992940806,2
2018-08-04,234.16603849654356,23.269408584415835,2
2018-08-05,233.97493709294224,23.308513638953954,2
2018-08-06,235.12047397474592,23.330793880227766,2
2018-08-07,238.54183603330256,23.33635653473749,2
2018-08-08,238.44710335178496,23.319659691773122,2
2018-08-09,237.4039000317827,23.319659691773122,2
2018-08-10,235.02511056339614,23.319659691773122,2
2018-08-11,235.02511056339614,23.302936153960136,2
2018-08-12,232.92259478879308,23.286185819110425,2
2018-08-13,231.86806487574182,23.275003991224203,2
2018-08-14,232.92259478879308,23.286185819110425,2
2018-08-15,230.0413955420811,23.297355691522895,0
2018-08-16,229.8487275041163,23.297355691522895,0
2018-08-17,228.1113628244096,23.297355691522895,0
2018-08-18,227.33724919472007,23.314088150296705,0
2018-08-19,226.4649222035394,23.330793880227766,0
2018-08-20,223.83862340355674,23.341916234443854,0
2018-08-21,223.15542243980136,23.369670541803615,0
2018-08-22,227.33724919472007,23.391821181416145,0
2018-08-23,228.01466463476132,23.391821181416145,0
2018-08-24,228.1113628244096,23.391821181416145,0
2018-08-25,238.06799962707535,23.408403512645876,2
2018-08-26,236.26345375318473,23.402878980456357,2
2018-08-27,235.7875214152557,23.391821181416145,2
2018-08-28,238.25758611547155,23.358577642174062,2
2018-08-29,237.87834378109335,23.341916234443854,2
2018-08-30,237.7834898159607,23.341916234443854,2
2018-08-31,236.3585873858963,23.341916234443854,2
2018-09-01,236.6438828581471,23.358577642174062,2
2018-09-02,236.3585873858963,23.38628790722735,2
2018-09-03,236.92902047492674,23.419443860654336,2
2018-09-04,237.11902470132435,23.441489793159544,2
2018-09-05,235.69228201763738,23.46898232587482,2
2018-09-06,234.45255641607645,23.46898232587482,2
2018-09-07,234.35706831575277,23.46898232587482,2
2018-09-08,232.5393834739495,23.49092472600472,2
2018-09-09,234.35706831575277,23.523752816791,2
2018-09-10,234.54802666210256,23.561923474787644,2
2018-09-11,234.35706831575277,23.60537872364743,2
2018-09-12,233.49686966752145,23.632447803318097,2
2018-09-13,232.15588197909673,23.632447803318097,2
2018-09-14,229.55958632753703,23.632447803318097,0
2018-09-15,231.38800477529603,23.64325607241443,2
2018-09-16,231.9640221277293,23.64325607241443,2
2018-09-17,233.68815052207293,23.64325607241443,2
2018-09-18,234.26156234721935,23.65405331751947,2
2018-09-19,237.49882359294534,23.6702285738423,2
2018-09-20,242.59917179843063,23.6702285738423,2
2018-09-21,243.06892887914162,23.6702285738423,2
2018-09-22,242.12899658414477,23.691757247796296,2
2018-09-23,245.13093152807838,23.70787511841363,2
2018-09-24,243.538269370443,23.70787511841363,2
2018-09-25,245.2244693914254,23.702505215402365,2
2018-09-26,243.4444345255527,23.697132592960713,2
2018-09-27,243.06892887914162,23.697132592960713,2
2018-09-28,241.47004585847716,23.697132592960713,2
2018-09-29,242.03491122866203,23.697132592960713,2
2018-09-30,240.90457297915793,23.697132592960713,2
2018-10-01,239.29907673530553,23.702505215402365,2
2018-10-02,238.92059415452107,23.71860677928303,2
2018-10-03,239.20448187640432,23.734683956807626,2
2018-10-04,238.1628015343713,23.734683956807626,2
2018-10-05,236.73894625194333,23.734683956807626,2
2018-10-06,233.87935951205694,23.75073683602584,2
2018-10-07,237.49882359294534,23.777437876045415,2
2018-10-08,238.44710335178496,23.809390917117344,2
2018-10-09,236.54880192486615,23.84654871495382,2
2018-10-10,239.015240599025,23.88357750141567,2
2018-10-11,242.97501083942086,23.88357750141567,2
2018-10-12,244.56935960225513,23.88357750141567,2
2018-10-13,246.34564916446587,23.925739506892462,2
2018-10-14,248.3950853430597,23.95200659515906,2
2018-10-15,247.37134213618322,23.967735965792436,2
2018-10-16,247.37134213618322,23.97297396033067,2
2018-10-17,248.95267442232253,23.957252286206323,2
2018-10-18,249.13840998012125,23.957252286206323,2
2018-10-19,249.5096904377558,23.957252286206323,2
2018-10-20,249.23125390979314,23.925739506892462,2
2018-10-21,246.9053606945585,23.888856858782905,2
2018-10-22,246.0655742883906,23.81470711334928,2
2018-10-23,245.2244693914254,23.772103028863555,2
2018-10-24,242.59917179843063,23.72396854369451,2
2018-10-25,240.24408315241044,23.72396854369451,2
2018-10-26,237.49882359294534,23.72396854369451,2
2018-10-27,239.7717937508853,23.648656071286954,2
2018-10-28,237.49882359294534,23.599956582285383,2
2018-10-29,235.69228201763738,23.572804060866904,2
2018-10-30,234.54802666210256,23.5292142344858,2
2018-10-31,233.49686966752145,23.46898232587482,2
2018-11-01,232.05996115738049,23.46898232587482,2
2018-11-02,232.4435353403548,23.46898232587482,2
2018-11-03,230.90748694461206,23.42495968376773,2
2018-11-04,229.8487275041163,23.391821181416145,0
2018-11-05,227.91794761456663,23.369670541803615,0
2018-11-06,226.852813190655,23.341916234443854,0
2018-11-07,228.1113628244096,23.32522826716029,0
2018-11-08,225.68822349705835,23.32522826716029,0
2018-11-09,222.76459056051962,23.32522826716029,0
2018-11-10,222.66683341180178,23.280596401512124,0
2018-11-11,224.22859442228062,23.21328885934575,0
2018-11-12,222.27560760556295,23.145543662007373,0
2018-11-13,221.8840654640717,23.06023624487736,0
2018-11-14,219.52810932504593,22.968460565574567,0
2018-11-15,217.45708886094684,22.968460565574567,0
2018-11-16,217.45708886094684,22.968460565574567,0
2018-11-17,215.5754782721384,22.887482155168733,1
2018-11-18,218.3457727791208,22.83508624578357,0
2018-11-19,219.23279969398914,22.794148309984287,0
2018-11-20,217.2593772197666,22.741272519728597,0
2018-11-21,218.04972955454866,22.688122146575573,0
2018-11-22,214.78096451761843,22.688122146575573,1
2018-11-23,210.28637074214305,22.688122146575573,1
2018-11-24,215.4762376140941,22.65253432677225,1
2018-11-25,218.74021076748394,22.610857657517446,0
2018-11-26,215.37697597558193,22.580983858328022,1
2018-11-27,215.9722314682983,22.569009736832477,0
2018-11-28,211.58930190919946,22.54501910132509,1
2018-11-29,220.5111613536302,22.54501910132509,0
2018-11-30,219.92157212814092,22.54501910132509,0
2018-12-01,218.3457727791208,22.508926566658417,0
2018-12-02,220.6093558641813,22.442421425468083,0
2018-12-03,224.91029576655797,22.357141244630313,0
2018-12-04,222.27560760556295,22.295782438056264,0
2018-12-05,225.20216320634586,22.196822966915324,0
2018-12-06,228.1113628244096,22.196822966915324,0
2018-12-07,226.4649222035394,22.196822966915324,0
2018-12-08,225.29941376630777,22.146974656805245,0
2018-12-09,227.14353171515853,22.10942476600607,0
2018-12-10,227.72445702139646,22.10942476600607,0
2018-12-11,226.56192352781972,22.115692885845057,0
2018-12-12,224.42346320855646,22.134473690615238,0
2018-12-13,222.96004581031195,22.134473690615238,0
2018-12-14,219.13432257601707,22.134473690615238,0
2018-12-15,219.13432257601707,22.134473690615238,0
2018-12-16,216.96265481845194,22.15946002120185,0
2018-12-17,214.78096451761843,22.165696867247846,1
2018-12-18,212.38927818235325,22.17192983024242,1
2018-12-19,212.1894139055054,22.17192983024242,1
2018-12-20,210.28637074214305,22.17192983024242,1
2018-12-21,206.355108992485,22.17192983024242,1
2018-12-22,206.05128448263855,22.17815891595616,1
2018-12-23,207.77025418248294,22.196822966915324,1
2018-12-24,205.7472543013228,22.203036600941296,1
2018-12-25,205.84862058328721,22.184384130146125,1
2018-12-26,211.28895291261634,22.165696867247846,1
2018-12-27,208.5769255262986,22.165696867247846,1
2018-12-28,207.77025418248294,22.165696867247846,1
2018-12-29,202.38917971786705,22.134473690615238,1
2018-12-30,204.7323274766594,22.10942476600607,1
2018-12-31,203.30753834086545,22.10942476600607,1
2019-01-01,206.65872840901952,22.01492736145049,1
2019-01-02,205.13857459726037,21.938678223809166,1
2019-01-03,207.16430656826418,21.938678223809166,1
2019-01-04,207.77025418248294,21.938678223809166,1
2019-01-05,206.1525821430297,21.945054720722865,1
2019-01-06,204.93549721829157,21.938678223809166,1
2019-01-07,206.05128448263855,21.945054720722865,1
2019-01-08,208.0729240581013,21.9514271237267,1
2019-01-09,212.8885617892202,22.00225971666548,1
2019-01-10,206.45633822434024,22.00225971666548,1
2019-01-11,203.5113595593502,22.00225971666548,1
2019-01-12,205.13857459726037,22.046526129851593,1
2019-01-13,204.52906519717746,22.12195707597485,1
2019-01-14,206.45633822434024,22.134473690615238,1
2019-01-15,203.6132350568953,22.215452328792352,1
2019-01-16,205.84862058328721,22.234047155216697,1
2019-01-17,200.341500094214,22.234047155216697,1
2019-01-18,212.8885617892202,22.234047155216697,1
2019-01-19,206.65872840901952,22.258786798824698,1
2019-01-20,215.17838968319253,22.252607598744603,1
2019-01-21,211.88945539720314,22.246424595183925,1
2019-01-22,217.95100748378928,22.252607598744603,0
2019-01-23,220.4129467686626,22.258786798824698,0
2019-01-24,218.5430326160667,22.258786798824698,0
2019-01-25,218.44441291709407,22.258786798824698,0
2019-01-26,220.5111613536302,22.252607598744603,0
2019-01-27,222.27560760556295,22.264962201009,0
2019-01-28,221.198102319182,22.283465675840848,0
2019-01-29,219.72488115049921,22.289625942031268,0
2019-01-30,218.04972955454866,22.283465675840848,0
2019-01-31,216.17048266203386,22.283465675840848,0
2019-02-01,214.88035242808903,22.283465675840848,1
2019-02-02,211.88945539720314,22.277301633964605,1
2019-02-03,212.38927818235325,22.246424595183925,1
2019-02-04,210.58737528627546,22.203036600941296,1
2019-02-05,209.28159043792684,22.17192983024242,1
2019-02-06,209.18099073490686,22.17192983024242,1
2019-02-07,207.77025418248294,22.17192983024242,1
2019-02-08,207.46738187420695,22.17192983024242,1
2019-02-09,206.1525821430297,22.15946002120185,1
2019-02-10,207.87116660571792,22.190605478555828,1
2019-02-11,209.58325652940624,22.215452328792352,1
2019-02-12,206.55754468941592,22.252607598744603,1
2019-02-13,206.45633822434024,22.295782438056264,1
2019-02-14,210.28637074214305,22.295782438056264,1
2019-02-15,223.7410819197847,22.295782438056264,0
2019-02-16,223.9361453794676,22.34489933855973,0
2019-02-17,222.47125998409317,22.357141244630313,0
2019-02-18,222.66683341180178,22.375476290076175,0
2019-02-19,224.13113087262835,22.38768117377361,0
2019-02-20,224.326038528876,22.412046780999024,0
2019-02-21,224.13113087262835,22.412046780999024,0
2019-02-22,221.00193350334717,22.412046780999024,0
2019-02-23,222.47125998409317,22.43028251283789,0
2019-02-24,221.49220591944447,22.484793351660183,0
2019-02-25,220.01988734222078,22.526988873976908,0
2019-02-26,217.95100748378928,22.533002507476805,0
2019-02-27,216.86370596214212,22.610857657517446,0
2019-02-28,214.58212534663053,22.610857657517446,1
2019-03-01,215.4762376140941,22.610857657517446,1
2019-03-02,213.9850996842811,22.640644084069457,1
2019-03-03,213.48699379950972,22.65847425434756,1
2019-03-04,213.48699379950972,22.65253432677225,1
2019-03-05,213.7859212452536,22.670343745999585,1
2019-03-06,212.38927818235325,22.676273319666073,1
2019-03-07,212.8885617892202,22.676273319666073,1
2019-03-08,210.88818254053356,22.676273319666073,1
2019-03-09,211.28895291261634,22.676273319666073,1
2019-03-10,213.7859212452536,22.682199451601853,1
2019-03-11,222.86232802118911,22.699957244659217,0
2019-03-12,222.47125998409317,22.711778651857884,0
2019-03-13,224.91029576655797,22.770681640973734,0
2019-03-14,229.46316877721887,22.770681640973734,0
2019-03-15,229.46316877721887,22.770681640973734,0
2019-03-16,230.81132829065,22.794148309984287,2
2019-03-17,227.6276834177959,22.840921219962404,0
2019-03-18,229.46316877721887,22.910683846462486,0
2019-03-19,229.07731238687273,22.92226512156052,0
2019-03-20,229.8487275041163,23.00297197584719,0
2019-03-21,230.13770178169398,23.00297197584719,0
2019-03-22,227.91794761456663,23.00297197584719,0
2019-03-23,229.36673262296142,23.025915727040836,0
2019-03-24,228.20804219876925,23.037368547331994,0
2019-03-25,228.01466463476132,23.06594528876224,0
2019-03-26,226.94973836015575,23.088750066542612,0
2019-03-27,226.4649222035394,23.094443432148267,0
2019-03-28,226.94973836015575,23.094443432148267,0
2019-03-29,226.17380370212356,23.094443432148267,0
2019-03-30,225.4938571017663,23.100133674428378,0
2019-03-31,226.17380370212356,23.105820797473196,0
2019-04-01,224.22859442228062,23.105820797473196,0
2019-04-02,223.54594036359066,23.117185702175618,0
2019-04-03,224.71562084717567,23.117185702175618,0
2019-04-04,223.7410819197847,23.117185702175618,0
2019-04-05,222.5690565585096,23.117185702175618,0
2019-04-06,220.90381911996266,23.117185702175618,0
2019-04-07,222.66683341180178,23.117185702175618,0
2019-04-08,223.54594036359066,23.13420976673512,0
2019-04-09,224.71562084717567,23.145543662007373,0
2019-04-10,227.53089092239807,23.156865210006995,0
2019-04-11,225.88251307880722,23.156865210006995,0
2019-04-12,231.2919378857296,23.156865210006995,2
2019-04-13,235.7875214152557,23.162521363811706,2
2019-04-14,237.024031330991,23.168174442820344,2
2019-04-15,234.9297293808279,23.179471392402142,2
2019-04-16,233.59251908489898,23.246996915088978,2
2019-04-17,235.02511056339614,23.280596401512124,2
2019-04-18,236.26345375318473,23.280596401512124,2
2019-04-19,235.31114753889193,23.280596401512124,2
2019-04-20,237.11902470132435,23.330793880227766,2
2019-04-21,235.02511056339614,23.347472983093745,2
2019-04-22,234.54802666210256,23.38628790722735,2
2019-04-23,233.3055168357908,23.391821181416145,2
2019-04-24,232.92259478879308,23.397351537934917,2
2019-04-25,232.5393834739495,23.397351537934917,2
2019-04-26,231.48405335569305,23.397351537934917,2
2019-04-27,231.48405335569305,23.38628790722735,2
2019-04-28,232.15588197909673,23.391821181416145,2
2019-04-29,232.63521347131845,23.397351537934917,2
2019-04-30,230.0413955420811,23.408403512645876,0
2019-05-01,230.52274188968693,23.479959245488075,0
2019-05-02,230.33025877623393,23.479959245488075,0
2019-05-03,227.53089092239807,23.479959245488075,0
2019-05-04,226.56192352781972,23.485443413853513,0
2019-05-05,228.1113628244096,23.479959245488075,0
2019-05-06,227.91794761456663,23.46898232587482,0
2019-05-07,227.82121174854558,23.463489567489617,0
2019-05-08,228.49796758237196,23.43598264639475,0
2019-05-09,228.20804219876925,23.43598264639475,0
2019-05-10,229.94507078783235,23.43598264639475,0
2019-05-11,238.63655144123507,23.38075171168846,2
2019-05-12,239.20448187640432,23.33635653473749,2
2019-05-13,240.71594654610064,23.291772247842225,2
2019-05-14,242.7871247200455,23.263810177248416,2
2019-05-15,242.69315661570047,23.224536992940806,2
2019-05-16,241.28162253409772,23.224536992940806,2
2019-05-17,240.90457297915793,23.224536992940806,2
2019-05-18,240.24408315241044,23.179471392402142,2
2019-05-19,239.86628578876233,23.179471392402142,2
2019-05-20,239.86628578876233,23.185115270931245,2
2019-05-21,237.30895903835412,23.202028569035996,2
2019-05-22,234.6434790677256,23.23015651075886,2
2019-05-23,232.73102534674385,23.23015651075886,2
2019-05-24,229.7523656760811,23.23015651075886,0
2019-05-25,228.49796758237196,23.308513638953954,0
2019-05-26,228.1113628244096,23.33635653473749,0
2019-05-27,227.33724919472007,23.358577642174062,0
2019-05-28,225.97962910407227,23.375212591112135,0
2019-05-29,225.68822349705835,23.369670541803615,0
2019-05-30,224.326038528876,23.369670541803615,0
2019-05-31,221.198102319182,23.369670541803615,0
2019-06-01,221.9819807141659,23.319659691773122,0
2019-06-02,225.68822349705835,23.291772247842225,0
2019-06-03,223.9361453794676,23.252604346443082,0
2019-06-04,224.22859442228062,23.202028569035996,0
2019-06-05,224.22859442228062,23.088750066542612,0
2019-06-06,220.6093558641813,23.088750066542612,0
2019-06-07,217.55591374747857,23.088750066542612,0
2019-06-08,219.62650535239976,23.037368547331994,0
2019-06-09,217.45708886094684,22.939612669391007,0
2019-06-10,220.8056847303103,22.764806568551844,0
2019-06-11,224.5208684774408,22.82340634326108,0
2019-06-12,224.8129679801456,22.616821913085566,0
2019-06-13,231.58008364144425,22.616821913085566,2
2019-06-14,230.52274188968693,22.616821913085566,0
2019-06-15,238.44710335178496,22.604889907065473,2
2019-06-16,233.11409191395953,22.580983858328022,2
2019-06-17,237.87834378109335,22.592943901913536,2
2019-06-18,239.48821495846565,22.604889907065473,2
2019-06-19,237.49882359294534,22.628739959101786,2
2019-06-20,235.59702494486933,22.628739959101786,2
2019-06-21,233.59251908489898,22.628739959101786,2
2019-06-22,229.8487275041163,22.634693759288698,0
2019-06-23,229.8487275041163,22.628739959101786,0
2019-06-24,227.91794761456663,22.62278267865542,0
2019-06-25,225.97962910407227,22.62278267865542,0
2019-06-26,225.68822349705835,22.640644084069457,0
2019-06-27,223.0577439443652,22.640644084069457,0
2019-06-28,220.2164573070481,22.640644084069457,0
2019-06-29,218.3457727791208,22.676273319666073,0
2019-06-30,220.70753031739147,22.717684233186578,0
2019-07-01,217.8522648855026,22.753046305232996,0
2019-07-02,219.42969305110395,22.788286676642528,0
2019-07-03,221.39419131330033,22.875861668611247,0
2019-07-04,221.6881754341407,22.875861668611247,0
2019-07-05,219.72488115049921,22.875861668611247,0
2019-07-06,226.27086230633722,22.881673552310893,0
2019-07-07,226.36790180159005,22.89328748160586,0
2019-07-08,233.59251908489898,22.904888322855147,2
2019-07-09,228.01466463476132,22.904888322855147,0
2019-07-10,231.09974912089862,22.91647611123952,2
2019-07-11,236.4537034386166,22.91647611123952,2
2019-07-12,237.49882359294534,22.91647611123952,2
2019-07-13,239.015240599025,22.928050881790472,2
2019-07-14,238.44710335178496,22.933833396285117,2
2019-07-15,238.1628015343713,22.94538870544541,2
2019-07-16,236.26345375318473,23.031643721628292,2
2019-07-17,234.9297293808279,23.054524052946395,2
2019-07-18,233.7837639931099,23.054524052946395,2
2019-07-19,230.52274188968693,23.054524052946395,0
2019-07-20,228.20804219876925,23.105820797473196,0
2019-07-21,229.1738044427778,23.162521363811706,0
2019-07-22,227.43407951983605,23.185115270931245,0
2019-07-23,224.71562084717567,23.19075609057617,0
2019-07-24,223.7410819197847,23.179471392402142,0
2019-07-25,222.86232802118911,23.179471392402142,0
2019-07-26,221.49220591944447,23.179471392402142,0
2019-07-27,221.8840654640717,23.151205977407756,0
2019-07-28,220.70753031739147,23.077353948951284,0
2019-07-29,220.90381911996266,23.06594528876224,0
2019-07-30,219.72488115049921,22.997228073759167,0
2019-07-31,219.42969305110395,22.95116150877654,0
2019-08-01,217.35824335768368,22.95116150877654,0
2019-08-02,216.0713675002501,22.95116150877654,0
2019-08-03,216.17048266203386,22.95116150877654,0
2019-08-04,217.75350174190214,22.94538870544541,0
2019-08-05,219.52810932504593,22.956931083703356,0
2019-08-06,222.27560760556295,22.974220481111484,0
2019-08-07,223.7410819197847,22.997228073759167,0
2019-08-08,227.04664452982342,22.997228073759167,0
2019-08-09,229.36673262296142,22.997228073759167,0
2019-08-10,234.45255641607645,23.014450214430976,2
2019-08-11,237.21400059932037,23.014450214430976,2
2019-08-12,240.24408315241044,23.00871268799479,2
2019-08-13,242.3171169451335,22.985730682801446,2
2019-08-14,241.47004585847716,22.97997718542922,2
2019-08-15,241.1873855275883,22.97997718542922,2
2019-08-16,237.7834898159607,22.97997718542922,2
2019-08-17,236.4537034386166,22.974220481111484,2
2019-08-18,236.83399211972065,22.956931083703356,2
2019-08-19,234.83433041324182,22.956931083703356,2
2019-08-20,232.4435353403548,22.974220481111484,2
2019-08-21,229.36673262296142,22.985730682801446,0
2019-08-22,227.6276834177959,22.985730682801446,0
2019-08-23,225.4938571017663,22.985730682801446,0
2019-08-24,223.44834025857594,22.985730682801446,0
2019-08-25,222.96004581031195,22.99148097749285,0
2019-08-26,220.8056847303103,22.985730682801446,0
2019-08-27,218.3457727791208,22.985730682801446,0
2019-08-28,218.44441291709407,22.985730682801446,0
2019-08-29,217.55591374747857,22.985730682801446,0
2019-08-30,217.06158296814223,22.985730682801446,0
2019-08-31,215.6746979681694,22.985730682801446,0
2019-09-01,216.36865044820618,22.985730682801446,0
2019-09-02,219.33125651321376,22.97997718542922,0
2019-09-03,224.61825435162314,22.974220481111484,0
2019-09-04,230.90748694461206,22.974220481111484,2
2019-09-05,233.01835238388247,22.974220481111484,2
2019-09-06,230.2339895214817,22.974220481111484,0
2019-09-07,231.38800477529603,22.97997718542922,2
2019-09-08,234.83433041324182,22.97997718542922,2
2019-09-09,240.52725220720816,22.939612669391007,2
2019-09-10,239.58275834864637,22.939612669391007,2
2019-09-11,242.3171169451335,22.899089536033895,2
2019-09-12,240.71594654610064,22.899089536033895,2
2019-09-13,237.7834898159607,22.899089536033895,2
2019-09-14,237.30895903835412,22.887482155168733,2
2019-09-15,237.11902470132435,22.89328748160586,2
2019-09-16,235.02511056339614,22.939612669391007,2
2019-09-17,232.63521347131845,23.014450214430976,2
2019-09-18,230.52274188968693,23.077353948951284,0
2019-09-19,228.69115737375242,23.077353948951284,0
2019-09-20,227.43407951983605,23.077353948951284,0
2019-09-21,227.91794761456663,23.083053573512704,0
2019-09-22,228.8842722683298,23.145543662007373,0
2019-09-23,228.01466463476132,23.258208765875565,0
2019-09-24,227.14353171515853,23.369670541803615,0
2019-09-25,236.73894625194333,23.49092472600472,2
2019-09-26,237.4039000317827,23.49092472600472,2
2019-09-27,239.20448187640432,23.49092472600472,2
2019-09-28,245.31799087025365,23.523752816791,2
2019-09-29,243.81967434092977,23.583673446049563,2
2019-09-30,244.2883514760931,23.561923474787644,2
2019-10-01,246.0655742883906,23.561923474787644,2
2019-10-02,242.97501083942086,23.51828856759426,2
2019-10-03,243.81967434092977,23.51828856759426,2
2019-10-04,243.35058306624256,23.51828856759426,2
2019-10-05,238.25758611547155,23.42495968376773,2
2019-10-06,237.21400059932037,23.347472983093745,2
2019-10-07,235.40645771919262,23.286185819110425,2
2019-10-08,232.5393834739495,23.21891444377291,2
2019-10-09,231.2919378857296,23.202028569035996,2
2019-10-10,229.46316877721887,23.202028569035996,0
2019-10-11,228.78772417558537,23.202028569035996,0
2019-10-12,226.36790180159005,23.23015651075886,0
2019-10-13,227.53089092239807,23.241386467943368,0
2019-10-14,228.30470277307688,23.302936153960136,0
2019-10-15,225.4938571017663,23.330793880227766,0
2019-10-16,225.88251307880722,23.38075171168846,0
2019-10-17,231.58008364144425,23.38075171168846,2
2019-10-18,232.73102534674385,23.38075171168846,2
2019-10-19,234.54802666210256,23.413925138161588,2
2019-10-20,242.22306515214646,23.419443860654336,2
2019-10-21,245.41149597650858,23.413925138161588,2
2019-10-22,242.4111519755568,23.397351537934917,2
2019-10-23,244.47570671152843,23.38628790722735,2
2019-10-24,247.7438371743858,23.38628790722735,2
2019-10-25,247.09180170507656,23.38628790722735,2
2019-10-26,246.71885499670097,23.364125560060764,2
2019-10-27,246.15894884224016,23.314088150296705,2
2019-10-28,245.13093152807838,23.286185819110425,2
2019-10-29,242.59917179843063,23.224536992940806,2
2019-10-30,239.58275834864637,23.173824451023147,2
2019-10-31,236.92902047492674,23.173824451023147,2
2019-11-01,231.48405335569305,23.173824451023147,2
2019-11-02,229.55958632753703,23.145543662007373,0
2019-11-03,228.8842722683298,23.128538178808586,0
2019-11-04,228.01466463476132,23.111504805364504,0
2019-11-05,225.78537788172616,23.100133674428378,0
2019-11-06,224.03364786375366,23.07165118874257,0
2019-11-07,223.35072058051455,23.07165118874257,0
2019-11-08,221.10002789743754,23.07165118874257,0
2019-11-09,220.31471209217747,23.014450214430976,0
2019-11-10,222.5690565585096,23.025915727040836,0
2019-11-11,223.15542243980136,23.04880870881918,0
2019-11-12,224.42346320855646,23.094443432148267,0
2019-11-13,231.6760956470513,23.162521363811706,2
2019-11-14,229.7523656760811,23.162521363811706,0
2019-11-15,233.3055168357908,23.162521363811706,2
2019-11-16,241.47004585847716,23.269408584415835,2
2019-11-17,232.63521347131845,23.330793880227766,2
2019-11-18,238.92059415452107,23.38075171168846,2
2019-11-19,244.194649107201,23.402878980456357,2
2019-11-20,245.41149597650858,23.430472611138143,2
2019-11-21,250.344145308998,23.430472611138143,2
2019-11-22,249.41689412730653,23.430472611138143,2
2019-11-23,247.7438371743858,23.43598264639475,2
2019-11-24,249.04555015474423,23.42495968376773,2
2019-11-25,247.18499798175773,23.413925138161588,2
2019-11-26,244.194649107201,23.38628790722735,2
2019-11-27,240.52725220720816,23.364125560060764,2
2019-11-28,236.4537034386166,23.364125560060764,2
2019-11-29,231.9640221277293,23.364125560060764,2
2019-11-30,229.27027784980723,23.358577642174062,0
2019-12-01,228.01466463476132,23.353026784426522,0
2019-12-02,226.36790180159005,23.358577642174062,0
2019-12-03,224.71562084717567,23.358577642174062,0
2019-12-04,223.83862340355674,23.358577642174062,0
2019-12-05,226.852813190655,23.358577642174062,0
2019-12-06,226.56192352781972,23.358577642174062,0
2019-12-07,231.19585267245174,23.364125560060764,2
2019-12-08,237.59372973516335,23.364125560060764,2
2019-12-09,245.41149597650858,23.330793880227766,2
2019-12-10,244.56935960225513,23.314088150296705,2
2019-12-11,247.6507375446948,23.297355691522895,2
2019-12-12,249.97343445780638,23.297355691522895,2
2019-12-13,251.54721892606727,23.297355691522895,2
2019-12-14,248.95267442232253,23.286185819110425,2
2019-12-15,248.95267442232253,23.286185819110425,2
2019-12-16,247.27817812158355,23.291772247842225,2
2019-12-17,246.15894884224016,23.302936153960136,2
2019-12-18,243.06892887914162,23.291772247842225,2
2019-12-19,238.73124958869133,23.291772247842225,2
2019-12-20,235.69228201763738,23.291772247842225,2
2019-12-21,234.54802666210256,23.263810177248416,2
2019-12-22,233.87935951205694,23.23577300112854,2
2019-12-23,231.2919378857296,23.207660235741905,2
2019-12-24,228.30470277307688,23.19075609057617,0
2019-12-25,226.27086230633722,23.207660235741905,0
2019-12-26,226.56192352781972,23.207660235741905,0
2019-12-27,224.71562084717567,23.207660235741905,0
2019-12-28,223.7410819197847,23.207660235741905,0
2019-12-29,225.97962910407227,23.224536992940806,0
2019-12-30,226.65890579004326,23.23015651075886,0
2019-12-31,226.65890579004326,23.241386467943368,0
