date,price
2019-11-01,1716
2019-11-02,1659
2019-11-03,1639
2019-11-04,1632
2019-11-05,1623
2019-11-06,1600
2019-11-07,1582
2019-11-08,1575
2019-11-09,1552
2019-11-10,1544
2019-11-11,1567
2019-11-12,1573
2019-11-13,1586
2019-11-14,1661
2019-11-15,1641
2019-11-16,1678
2019-11-17,1764
2019-11-18,1671
2019-11-19,1737
2019-11-20,1793
2019-11-21,1806
2019-11-22,1859
2019-11-23,1849
2019-11-24,1831
2019-11-25,1845
2019-11-26,1825
2019-11-27,1793
2019-11-28,1754
2019-11-29,1711
2019-11-30,1664
