date,tapis_oil_price
2017-01-01,5863
2017-01-02,5863
2017-01-03,5863
2017-01-04,5761
2017-01-05,5779
2017-01-06,5835
2017-01-07,5897
2017-01-08,5897
2017-01-09,5897
2017-01-10,5735
2017-01-11,5601
2017-01-12,5738
2017-01-13,5809
2017-01-14,5742
2017-01-15,5742
2017-01-16,5742
2017-01-17,5790
2017-01-18,5793
2017-01-19,5682
2017-01-20,5657
2017-01-21,5731
2017-01-22,5731
2017-01-23,5731
2017-01-24,5772
2017-01-25,5712
2017-01-26,5742
2017-01-27,5796
2017-01-28,5668
2017-01-29,5668
2017-01-30,5668
2017-01-31,5668
2017-02-01,5673
2017-02-02,5802
2017-02-03,5814
2017-02-04,5788
2017-02-05,5788
2017-02-06,5788
2017-02-07,5669
2017-02-08,5563
2017-02-09,5683
2017-02-10,5700
2017-02-11,5780
2017-02-12,5780
2017-02-13,5780
2017-02-14,5713
2017-02-15,5688
2017-02-16,5699
2017-02-17,5683
2017-02-18,5712
2017-02-19,5712
2017-02-20,5712
2017-02-21,5728
2017-02-22,5739
2017-02-23,5748
2017-02-24,5739
2017-02-25,5757
2017-02-26,5757
2017-02-27,5757
2017-02-28,5712
2017-03-01,5718
2017-03-02,5685
2017-03-03,5598
2017-03-04,5599
2017-03-05,5599
2017-03-06,5599
2017-03-07,5650
2017-03-08,5616
2017-03-09,5452
2017-03-10,5296
2017-03-11,5199
2017-03-12,5199
2017-03-13,5199
2017-03-14,5206
2017-03-15,5217
2017-03-16,5295
2017-03-17,5223
2017-03-18,5206
2017-03-19,5206
2017-03-20,5206
2017-03-21,5244
2017-03-22,5100
2017-03-23,5093
2017-03-24,5066
2017-03-25,5043
2017-03-26,5043
2017-03-27,5043
2017-03-28,5099
2017-03-29,5156
2017-03-30,5222
2017-03-31,5252
2017-04-01,5293
2017-04-02,5293
2017-04-03,5293
2017-04-04,5230
2017-04-05,5438
2017-04-06,5416
2017-04-07,5560
2017-04-08,5584
2017-04-09,5584
2017-04-10,5584
2017-04-11,5622
2017-04-12,5672
2017-04-13,5626
2017-04-14,5577
2017-04-15,5577
2017-04-16,5577
2017-04-17,5577
2017-04-18,5541
2017-04-19,5516
2017-04-20,5307
2017-04-21,5285
2017-04-22,5240
2017-04-23,5240
2017-04-24,5240
2017-04-25,5163
2017-04-26,5189
2017-04-27,5138
2017-04-28,5163
2017-04-29,5119
2017-04-30,5119
2017-05-01,5119
2017-05-02,5119
2017-05-03,5027
2017-05-04,4972
2017-05-05,4824
2017-05-06,4897
2017-05-07,4897
2017-05-08,4897
2017-05-09,4935
2017-05-10,5074
2017-05-11,5074
2017-05-12,5080
2017-05-13,5219
2017-05-14,5219
2017-05-15,5219
2017-05-16,5229
2017-05-17,5160
2017-05-18,5219
2017-05-19,5328
2017-05-20,5414
2017-05-21,5414
2017-05-22,5414
2017-05-23,5367
2017-05-24,5468
2017-05-25,5449
2017-05-26,5198
2017-05-27,5230
2017-05-28,5230
2017-05-29,5230
2017-05-30,5225
2017-05-31,5181
2017-06-01,5149
2017-06-02,4962
2017-06-03,5012
2017-06-04,5012
2017-06-05,5012
2017-06-06,4922
2017-06-07,4967
2017-06-08,4849
2017-06-09,4817
2017-06-10,4880
2017-06-11,4880
2017-06-12,4880
2017-06-13,4903
2017-06-14,4857
2017-06-15,4745
2017-06-16,4775
2017-06-17,4761
2017-06-18,4761
2017-06-19,4761
2017-06-20,4756
2017-06-21,4627
2017-06-22,4529
2017-06-23,4601
2017-06-24,4688
2017-06-25,4688
2017-06-26,4688
2017-06-27,4688
2017-06-28,4711
2017-06-29,4825
2017-06-30,4838
2017-07-01,4939
2017-07-02,4939
2017-07-03,4939
2017-07-04,5007
2017-07-05,5021
2017-07-06,4910
2017-07-07,4788
2017-07-08,4757
2017-07-09,4757
2017-07-10,4757
2017-07-11,4762
2017-07-12,4933
2017-07-13,4826
2017-07-14,4925
2017-07-15,5001
2017-07-16,5001
2017-07-17,5001
2017-07-18,4953
2017-07-19,4977
2017-07-20,5080
2017-07-21,5063
2017-07-22,4896
2017-07-23,4896
2017-07-24,4896
2017-07-25,4982
2017-07-26,5162
2017-07-27,5198
2017-07-28,5247
2017-07-29,5323
2017-07-30,5323
2017-07-31,5323
2017-08-01,5385
2017-08-02,5241
2017-08-03,5305
2017-08-04,5264
2017-08-05,5315
2017-08-06,5315
2017-08-07,5315
2017-08-08,5355
2017-08-09,5384
2017-08-10,5384
2017-08-11,5228
2017-08-12,5282
2017-08-13,5282
2017-08-14,5282
2017-08-15,5180
2017-08-16,5207
2017-08-17,5129
2017-08-18,5206
2017-08-19,5336
2017-08-20,5336
2017-08-21,5336
2017-08-22,5336
2017-08-23,5260
2017-08-24,5337
2017-08-25,5395
2017-08-26,5393
2017-08-27,5393
2017-08-28,5393
2017-08-29,5347
2017-08-30,5323
2017-08-31,5270
2017-09-01,5400
2017-09-02,5400
2017-09-03,5400
2017-09-04,5400
2017-09-05,5420
2017-09-06,5530
2017-09-07,5638
2017-09-08,5664
2017-09-09,5551
2017-09-10,5551
2017-09-11,5551
2017-09-12,5553
2017-09-13,5618
2017-09-14,5682
2017-09-15,5692
2017-09-16,5759
2017-09-17,5759
2017-09-18,5759
2017-09-19,5727
2017-09-20,5745
2017-09-21,5843
2017-09-22,5877
2017-09-23,5917
2017-09-24,5917
2017-09-25,5917
2017-09-26,6089
2017-09-27,6095
2017-09-28,6045
2017-09-29,6030
2017-09-30,5960
2017-10-01,5960
2017-10-02,5960
2017-10-03,5902
2017-10-04,5847
2017-10-05,5909
2017-10-06,6015
2017-10-07,5829
2017-10-08,5829
2017-10-09,5829
2017-10-10,5857
2017-10-11,5935
2017-10-12,5936
2017-10-13,5989
2017-10-14,6051
2017-10-15,6051
2017-10-16,6051
2017-10-17,6084
2017-10-18,6010
2017-10-19,6010
2017-10-20,5984
2017-10-21,6056
2017-10-22,6056
2017-10-23,6056
2017-10-24,5997
2017-10-25,6083
2017-10-26,6079
2017-10-27,6171
2017-10-28,6310
2017-10-29,6310
2017-10-30,6310
2017-10-31,6305
2017-11-01,6401
2017-11-02,6288
2017-11-03,6324
2017-11-04,6505
2017-11-05,6505
2017-11-06,6505
2017-11-07,6694
2017-11-08,6614
2017-11-09,6578
2017-11-10,6620
2017-11-11,6572
2017-11-12,6572
2017-11-13,6572
2017-11-14,6531
2017-11-15,6388
2017-11-16,6445
2017-11-17,6368
2017-11-18,6476
2017-11-19,6476
2017-11-20,6476
2017-11-21,6464
2017-11-22,6527
2017-11-23,6509
2017-11-24,6570
2017-11-25,6562
2017-11-26,6562
2017-11-27,6562
2017-11-28,6559
2017-11-29,6531
2017-11-30,6503
2017-12-01,6534
2017-12-02,6566
2017-12-03,6566
2017-12-04,6566
2017-12-05,6459
2017-12-06,6505
2017-12-07,6371
2017-12-08,6473
2017-12-09,6512
2017-12-10,6512
2017-12-11,6512
2017-12-12,6698
2017-12-13,6564
2017-12-14,6441
2017-12-15,6513
2017-12-16,6525
2017-12-17,6525
2017-12-18,6525
2017-12-19,6531
2017-12-20,6568
2017-12-21,6627
2017-12-22,6654
2017-12-23,6688
2017-12-24,6688
2017-12-25,6688
2017-12-26,6688
2017-12-27,6840
2017-12-28,6844
2017-12-29,6887
2017-12-30,6915
2017-12-31,6915
2018-01-01,6915
2018-01-02,6915
2018-01-03,6894
2018-01-04,7031
2018-01-05,7029
2018-01-06,7002
2018-01-07,7002
2018-01-08,7002
2018-01-09,6997
2018-01-10,7095
2018-01-11,7097
2018-01-12,7079
2018-01-13,7154
2018-01-14,7154
2018-01-15,7154
2018-01-16,7156
2018-01-17,7087
2018-01-18,7086
2018-01-19,7020
2018-01-20,7042
2018-01-21,7042
2018-01-22,7042
2018-01-23,7084
2018-01-24,7113
2018-01-25,7245
2018-01-26,7180
2018-01-27,7201
2018-01-28,7201
2018-01-29,7201
2018-01-30,7070
2018-01-31,7070
2018-02-01,7117
2018-02-02,7203
2018-02-03,6987
2018-02-04,6987
2018-02-05,6987
2018-02-06,6926
2018-02-07,6917
2018-02-08,6709
2018-02-09,6584
2018-02-10,6516
2018-02-11,6516
2018-02-12,6516
2018-02-13,6459
2018-02-14,6396
2018-02-15,6612
2018-02-16,6645
2018-02-17,6645
2018-02-18,6645
2018-02-19,6645
2018-02-20,6669
2018-02-21,6586
2018-02-22,6619
2018-02-23,6751
2018-02-24,6866
2018-02-25,6866
2018-02-26,6866
2018-02-27,6873
2018-02-28,6792
2018-03-01,6645
2018-03-02,6543
2018-03-03,6644
2018-03-04,6644
2018-03-05,6644
2018-03-06,6695
2018-03-07,6663
2018-03-08,6663
2018-03-09,6589
2018-03-10,6641
2018-03-11,6641
2018-03-12,6641
2018-03-13,6616
2018-03-14,6594
2018-03-15,6626
2018-03-16,6648
2018-03-17,6725
2018-03-18,6725
2018-03-19,6725
2018-03-20,6793
2018-03-21,6886
2018-03-22,7048
2018-03-23,7044
2018-03-24,7131
2018-03-25,7131
2018-03-26,7131
2018-03-27,7138
2018-03-28,7070
2018-03-29,7079
2018-03-30,7167
2018-03-31,7167
2018-04-01,7167
2018-04-02,7167
2018-04-03,6998
2018-04-04,6930
2018-04-05,6992
2018-04-06,6965
2018-04-07,6863
2018-04-08,6863
2018-04-09,6863
2018-04-10,7053
2018-04-11,7162
2018-04-12,7295
2018-04-13,7336
2018-04-14,7236
2018-04-15,7236
2018-04-16,7236
2018-04-17,7223
2018-04-18,7290
2018-04-19,7492
2018-04-20,7444
2018-04-21,7453
2018-04-22,7453
2018-04-23,7453
2018-04-24,7586
2018-04-25,7504
2018-04-26,7531
2018-04-27,7556
2018-04-28,7488
2018-04-29,7488
2018-04-30,7488
2018-05-01,7518
2018-05-02,7518
2018-05-03,7512
2018-05-04,7497
2018-05-05,7703
2018-05-06,7703
2018-05-07,7703
2018-05-08,7701
2018-05-09,7825
2018-05-10,7892
2018-05-11,7880
2018-05-12,7802
2018-05-13,7802
2018-05-14,7802
2018-05-15,7973
2018-05-16,7931
2018-05-17,8078
2018-05-18,8094
2018-05-19,8018
2018-05-20,8018
2018-05-21,8018
2018-05-22,8101
2018-05-23,8041
2018-05-24,8079
2018-05-25,7944
2018-05-26,7684
2018-05-27,7684
2018-05-28,7684
2018-05-29,7705
2018-05-30,7705
2018-05-31,7886
2018-06-01,7836
2018-06-02,7806
2018-06-03,7806
2018-06-04,7806
2018-06-05,7680
2018-06-06,7691
2018-06-07,7681
2018-06-08,7798
2018-06-09,7731
2018-06-10,7731
2018-06-11,7731
2018-06-12,7766
2018-06-13,7633
2018-06-14,7729
2018-06-15,7394
2018-06-16,7394
2018-06-17,7394
2018-06-18,7394
2018-06-19,7527
2018-06-20,7603
2018-06-21,7448
2018-06-22,7505
2018-06-23,7622
2018-06-24,7622
2018-06-25,7622
2018-06-26,7651
2018-06-27,7778
2018-06-28,7884
2018-06-29,7915
2018-06-30,7958
2018-07-01,7958
2018-07-02,7958
2018-07-03,7876
2018-07-04,7891
2018-07-05,7898
2018-07-06,7831
2018-07-07,7851
2018-07-08,7851
2018-07-09,7851
2018-07-10,7970
2018-07-11,7845
2018-07-12,7584
2018-07-13,7451
2018-07-14,7605
2018-07-15,7605
2018-07-16,7605
2018-07-17,7320
2018-07-18,7253
2018-07-19,7353
2018-07-20,7459
2018-07-21,7461
2018-07-22,7461
2018-07-23,7461
2018-07-24,7476
2018-07-25,7567
2018-07-26,7645
2018-07-27,7628
2018-07-28,7631
2018-07-29,7631
2018-07-30,7631
2018-07-31,7663
2018-08-01,7531
2018-08-02,7381
2018-08-03,7458
2018-08-04,7501
2018-08-05,7501
2018-08-06,7501
2018-08-07,7556
2018-08-08,7609
2018-08-09,7323
2018-08-10,7323
2018-08-11,7555
2018-08-12,7555
2018-08-13,7555
2018-08-14,7605
2018-08-15,7390
2018-08-16,7312
2018-08-17,7355
2018-08-18,7416
2018-08-19,7416
2018-08-20,7416
2018-08-21,7439
2018-08-22,7659
2018-08-23,7659
2018-08-24,7758
2018-08-25,7784
2018-08-26,7784
2018-08-27,7784
2018-08-28,7862
2018-08-29,7809
2018-08-30,7959
2018-08-31,7963
2018-09-01,8001
2018-09-02,8001
2018-09-03,8001
2018-09-04,8095
2018-09-05,7983
2018-09-06,7965
2018-09-07,7891
2018-09-08,7952
2018-09-09,7952
2018-09-10,7952
2018-09-11,7977
2018-09-12,8100
2018-09-13,8077
2018-09-14,8002
2018-09-15,8012
2018-09-16,8012
2018-09-17,8012
2018-09-18,7938
2018-09-19,8073
2018-09-20,8137
2018-09-21,8131
2018-09-22,8291
2018-09-23,8291
2018-09-24,8291
2018-09-25,8529
2018-09-26,8387
2018-09-27,8565
2018-09-28,8360
2018-09-29,8598
2018-09-30,8598
2018-10-01,8598
2018-10-02,8793
2018-10-03,8905
2018-10-04,9028
2018-10-05,8843
2018-10-06,8683
2018-10-07,8683
2018-10-08,8683
2018-10-09,8857
2018-10-10,8931
2018-10-11,8608
2018-10-12,8456
2018-10-13,8402
2018-10-14,8402
2018-10-15,8402
2018-10-16,8267
2018-10-17,8389
2018-10-18,8192
2018-10-19,8081
2018-10-20,8081
2018-10-21,8081
2018-10-22,8081
2018-10-23,8120
2018-10-24,7781
2018-10-25,7887
2018-10-26,7984
2018-10-27,8113
2018-10-28,8113
2018-10-29,8113
2018-10-30,8102
2018-10-31,7997
2018-11-01,7784
2018-11-02,7553
2018-11-03,7473
2018-11-04,7473
2018-11-05,7473
2018-11-06,7409
2018-11-07,7409
2018-11-08,7567
2018-11-09,7406
2018-11-10,7542
2018-11-11,7542
2018-11-12,7542
2018-11-13,7323
2018-11-14,6912
2018-11-15,7013
2018-11-16,7098
2018-11-17,6998
2018-11-18,6998
2018-11-19,6998
2018-11-20,6884
2018-11-21,6556
2018-11-22,6520
2018-11-23,6442
2018-11-24,6258
2018-11-25,6258
2018-11-26,6258
2018-11-27,6223
2018-11-28,6355
2018-11-29,6202
2018-11-30,6281
2018-12-01,6506
2018-12-02,6506
2018-12-03,6506
2018-12-04,6531
2018-12-05,6355
2018-12-06,6353
2018-12-07,6220
2018-12-08,6222
2018-12-09,6222
2018-12-10,6222
2018-12-11,6233
2018-12-12,6315
2018-12-13,6268
2018-12-14,6039
2018-12-15,6299
2018-12-16,6299
2018-12-17,6299
2018-12-18,6123
2018-12-19,5976
2018-12-20,5908
2018-12-21,5782
2018-12-22,5352
2018-12-23,5352
2018-12-24,5352
2018-12-25,5352
2018-12-26,5352
2018-12-27,5706
2018-12-28,5694
2018-12-29,5538
2018-12-30,5538
2018-12-31,5538
2019-01-01,5538
2019-01-02,5538
2019-01-03,5701
2019-01-04,5944
2019-01-05,6141
2019-01-06,6141
2019-01-07,6141
2019-01-08,6045
2019-01-09,6244
2019-01-10,6392
2019-01-11,6531
2019-01-12,6307
2019-01-13,6307
2019-01-14,6307
2019-01-15,6259
2019-01-16,6400
2019-01-17,6367
2019-01-18,6444
2019-01-19,6531
2019-01-20,6531
2019-01-21,6531
2019-01-22,6531
2019-01-23,6488
2019-01-24,6394
2019-01-25,6501
2019-01-26,6388
2019-01-27,6388
2019-01-28,6388
2019-01-29,6299
2019-01-30,6463
2019-01-31,6547
2019-02-01,6506
2019-02-02,6639
2019-02-03,6639
2019-02-04,6639
2019-02-05,6581
2019-02-06,6581
2019-02-07,6581
2019-02-08,6503
2019-02-09,6529
2019-02-10,6529
2019-02-11,6529
2019-02-12,6559
2019-02-13,6650
2019-02-14,6809
2019-02-15,6834
2019-02-16,7048
2019-02-17,7048
2019-02-18,7048
2019-02-19,7012
2019-02-20,6989
2019-02-21,7056
2019-02-22,7053
2019-02-23,7031
2019-02-24,7031
2019-02-25,7031
2019-02-26,6801
2019-02-27,6887
2019-02-28,6972
2019-03-01,7025
2019-03-02,6900
2019-03-03,6900
2019-03-04,6900
2019-03-05,6900
2019-03-06,6887
2019-03-07,6963
2019-03-08,6888
2019-03-09,6970
2019-03-10,6970
2019-03-11,6970
2019-03-12,7003
2019-03-13,7004
2019-03-14,7113
2019-03-15,7059
2019-03-16,7031
2019-03-17,7031
2019-03-18,7031
2019-03-19,7109
2019-03-20,7139
2019-03-21,7206
2019-03-22,7091
2019-03-23,7009
2019-03-24,7009
2019-03-25,7009
2019-03-26,7075
2019-03-27,7105
2019-03-28,7027
2019-03-29,7081
2019-03-30,7208
2019-03-31,7208
2019-04-01,7208
2019-04-02,7242
2019-04-03,7309
2019-04-04,7242
2019-04-05,7259
2019-04-06,7433
2019-04-07,7433
2019-04-08,7433
2019-04-09,7439
2019-04-10,7381
2019-04-11,7469
2019-04-12,7442
2019-04-13,7453
2019-04-14,7453
2019-04-15,7453
2019-04-16,7381
2019-04-17,7525
2019-04-18,7472
2019-04-19,7670
2019-04-20,7670
2019-04-21,7670
2019-04-22,7670
2019-04-23,7741
2019-04-24,7759
2019-04-25,7823
2019-04-26,7748
2019-04-27,7506
2019-04-28,7506
2019-04-29,7506
2019-04-30,7568
2019-05-01,7572
2019-05-02,7572
2019-05-03,7441
2019-05-04,7398
2019-05-05,7398
2019-05-06,7398
2019-05-07,7506
2019-05-08,7411
2019-05-09,7323
2019-05-10,7398
2019-05-11,7506
2019-05-12,7506
2019-05-13,7506
2019-05-14,7373
2019-05-15,7453
2019-05-16,7584
2019-05-17,7628
2019-05-18,7563
2019-05-19,7563
2019-05-20,7563
2019-05-21,7563
2019-05-22,7509
2019-05-23,7373
2019-05-24,7201
2019-05-25,7187
2019-05-26,7187
2019-05-27,7187
2019-05-28,7351
2019-05-29,7241
2019-05-30,7292
2019-05-31,6925
2019-06-01,6545
2019-06-02,6545
2019-06-03,6545
2019-06-04,6559
2019-06-05,6531
2019-06-06,6531
2019-06-07,6718
2019-06-08,6689
2019-06-09,6689
2019-06-10,6689
2019-06-11,6614
2019-06-12,6439
2019-06-13,6448
2019-06-14,6375
2019-06-15,6445
2019-06-16,6445
2019-06-17,6445
2019-06-18,6383
2019-06-19,6525
2019-06-20,6638
2019-06-21,6808
2019-06-22,6847
2019-06-23,6847
2019-06-24,6847
2019-06-25,6800
2019-06-26,6873
2019-06-27,6926
2019-06-28,6931
2019-06-29,7041
2019-06-30,7041
2019-07-01,7041
2019-07-02,6854
2019-07-03,6589
2019-07-04,6672
2019-07-05,6673
2019-07-06,6820
2019-07-07,6820
2019-07-08,6820
2019-07-09,6733
2019-07-10,6859
2019-07-11,7065
2019-07-12,7034
2019-07-13,6950
2019-07-14,6950
2019-07-15,6950
2019-07-16,6928
2019-07-17,6791
2019-07-18,6666
2019-07-19,6588
2019-07-20,6734
2019-07-21,6734
2019-07-22,6734
2019-07-23,6700
2019-07-24,6793
2019-07-25,6718
2019-07-26,6720
2019-07-27,6698
2019-07-28,6698
2019-07-29,6698
2019-07-30,6800
2019-07-31,6887
2019-08-01,6815
2019-08-02,6539
2019-08-03,6466
2019-08-04,6466
2019-08-05,6466
2019-08-06,6400
2019-08-07,6257
2019-08-08,6114
2019-08-09,6196
2019-08-10,6196
2019-08-11,6196
2019-08-12,6196
2019-08-13,6196
2019-08-14,6405
2019-08-15,6273
2019-08-16,6241
2019-08-17,6250
2019-08-18,6250
2019-08-19,6250
2019-08-20,6345
2019-08-21,6385
2019-08-22,6408
2019-08-23,6327
2019-08-24,6286
2019-08-25,6286
2019-08-26,6286
2019-08-27,6258
2019-08-28,6339
2019-08-29,6387
2019-08-30,6434
2019-08-31,6274
2019-09-01,6274
2019-09-02,6274
2019-09-03,6211
2019-09-04,6260
2019-09-05,6437
2019-09-06,6512
2019-09-07,6469
2019-09-08,6469
2019-09-09,6469
2019-09-10,6606
2019-09-11,6603
2019-09-12,6463
2019-09-13,6329
2019-09-14,6793
2019-09-15,6793
2019-09-16,6793
2019-09-17,7134
2019-09-18,6787
2019-09-19,6719
2019-09-20,6850
2019-09-21,6822
2019-09-22,6822
2019-09-23,6822
2019-09-24,6823
2019-09-25,6681
2019-09-26,6695
2019-09-27,6729
2019-09-28,6622
2019-09-29,6622
2019-09-30,6622
2019-10-01,6543
2019-10-02,6483
2019-10-03,6321
2019-10-04,6352
2019-10-05,6393
2019-10-06,6393
2019-10-07,6393
2019-10-08,6408
2019-10-09,6293
2019-10-10,6333
2019-10-11,6556
2019-10-12,6500
2019-10-13,6500
2019-10-14,6500
2019-10-15,6425
2019-10-16,6414
2019-10-17,6463
2019-10-18,6523
2019-10-19,6503
2019-10-20,6503
2019-10-21,6503
2019-10-22,6454
2019-10-23,6514
2019-10-24,6638
2019-10-25,6684
2019-10-26,6667
2019-10-27,6667
2019-10-28,6667
2019-10-29,6667
2019-10-30,6678
2019-10-31,6639
2019-11-01,6534
2019-11-02,6748
2019-11-03,6748
2019-11-04,6748
2019-11-05,6825
2019-11-06,6853
2019-11-07,6795
2019-11-08,6761
2019-11-09,6656
2019-11-10,6656
2019-11-11,6656
2019-11-12,6723
2019-11-13,6669
2019-11-14,6751
2019-11-15,6731
2019-11-16,6817
2019-11-17,6817
2019-11-18,6817
2019-11-19,6739
2019-11-20,6572
2019-11-21,6740
2019-11-22,6879
2019-11-23,6873
2019-11-24,6873
2019-11-25,6873
2019-11-26,6891
2019-11-27,6962
2019-11-28,6919
2019-11-29,6939
2019-11-30,6778
2019-12-01,6778
2019-12-02,6778
2019-12-03,6763
2019-12-04,6768
2019-12-05,6945
2019-12-06,6981
2019-12-07,6941
2019-12-08,6941
2019-12-09,6941
2019-12-10,6956
2019-12-11,6917
2019-12-12,6906
2019-12-13,7009
2019-12-14,7036
2019-12-15,7036
2019-12-16,7036
2019-12-17,7084
2019-12-18,7103
2019-12-19,7159
2019-12-20,7198
2019-12-21,7177
2019-12-22,7177
2019-12-23,7177
2019-12-24,7292
2019-12-25,7379
2019-12-26,7379
2019-12-27,7445
2019-12-28,7456
2019-12-29,7456
2019-12-30,7456
2019-12-31,7411
