2017-04-01,1337
2017-04-02,1340
2017-04-03,1328
2017-04-04,1366
2017-04-05,1332
2017-04-06,1450
2017-04-07,1503
2017-04-08,1542
2017-04-09,1508
2017-04-10,1521
2017-04-11,1528
2017-04-12,1511
2017-04-13,1492
2017-04-14,1531
2017-04-15,1519
2017-04-16,1503
2017-04-17,1479
2017-04-18,1478
2017-04-19,1453
2017-04-20,1437
2017-04-21,1425
2017-04-22,1409
2017-04-23,1414
2017-04-24,1436
2017-04-25,1451
2017-04-26,1435
2017-04-27,1397
2017-04-28,1406
2017-04-29,1421
2017-04-30,1416
