2018-02-01,1498
2018-02-02,1458
2018-02-03,1465
2018-02-04,1440
2018-02-05,1477
2018-02-06,1469
2018-02-07,1474
2018-02-08,1519
2018-02-09,1510
2018-02-10,1491
2018-02-11,1464
2018-02-12,1545
2018-02-13,1579
2018-02-14,1631
2018-02-15,1614
2018-02-16,1630
2018-02-17,1599
2018-02-18,1613
2018-02-19,1614
2018-02-20,1600
2018-02-21,1614
2018-02-22,1610
2018-02-23,1588
2018-02-24,1582
2018-02-25,1581
2018-02-26,1557
2018-02-27,1540
2018-02-28,1514
