2018-10-01,1758
2018-10-02,1741
2018-10-03,1737
2018-10-04,1740
2018-10-05,1729
2018-10-06,1714
2018-10-07,1684
2018-10-08,1722
2018-10-09,1732
2018-10-10,1712
2018-10-11,1738
2018-10-12,1780
2018-10-13,1797
2018-10-14,1816
2018-10-15,1838
2018-10-16,1827
2018-10-17,1827
2018-10-18,1844
2018-10-19,1846
2018-10-20,1850
2018-10-21,1847
2018-10-22,1822
2018-10-23,1813
2018-10-24,1804
2018-10-25,1776
2018-10-26,1751
2018-10-27,1722
2018-10-28,1746
2018-10-29,1722
2018-10-30,1703
2018-10-31,1691
